#1
double table(25,2)
   0  255
   1  239
   2  213
   3  214
   4  129
   5   86
   6   84
   7   82
   8   37
   9   11
  10    6
  11    4
  12    4
  13    5
  14    4
  15    3
  16    3
  17    2
  18    7
  19   32
  20  105
  21  111
  22  231
  23  247
  24  255

