#1
double table(25,2)
   0   28
   1   30
   2   25
   3   22
   4   42
   5   63
   6   88
   7  139
   8  600
   9  186
  10  155
  11  142
  12  123
  13  145
  14  178
  15  140
  16  138
  17  139
  18  151
  19  172
  20  135
  21   86
  22   59
  23   33
  24   28

