last-generated=2020-07-22
statistics-initialization=
{
  "linear": "37",
  "nonlinear": "26",
  "numerical Jacobians": "0"
}
statistics-simulation=
{
  "linear": "27",
  "nonlinear": "27",
  "numerical Jacobians": "0"
}
time=[0e+00, 8.64e+04]
disSys.lin1.terminal_n.v[1]=[1.36e+04, 1.36e+04]
disSys.lin1.terminal_p.v[1]=[1.3579740234375e+04, 1.3579740234375e+04, 1.3579740234375e+04, 1.3579740234375e+04, 1.3579740234375e+04, 1.3579740234375e+04, 1.3579740234375e+04, 1.3579740234375e+04, 1.3579740234375e+04, 1.3579740234375e+04, 1.3579740234375e+04, 1.3579740234375e+04, 1.3579740234375e+04, 1.3579740234375e+04, 1.3579740234375e+04, 1.3579740234375e+04, 1.3579740234375e+04, 1.3579740234375e+04, 1.3579740234375e+04, 1.3579740234375e+04, 1.3579740234375e+04, 1.3579740234375e+04, 1.3579740234375e+04, 1.3579740234375e+04, 1.3579740234375e+04, 1.3579740234375e+04, 1.3562451171875e+04, 1.3545111328125e+04, 1.3527720703125e+04, 1.35102783203125e+04, 1.3492783203125e+04, 1.3475236328125e+04, 1.345763671875e+04, 1.34399833984375e+04, 1.34357724609375e+04, 1.34382998046875e+04, 1.34408251953125e+04, 1.34433505859375e+04, 1.34458740234375e+04, 1.3448396484375e+04, 1.345091796875e+04, 1.34534384765625e+04, 1.34584765625e+04, 1.34685380859375e+04, 1.34785830078125e+04, 1.34886103515625e+04, 1.349862109375e+04, 1.35086142578125e+04, 1.35185908203125e+04, 1.35285498046875e+04, 1.35384921875e+04, 1.35384921875e+04, 1.35384921875e+04, 1.35384921875e+04, 1.35384921875e+04, 1.35384921875e+04, 1.35384921875e+04, 1.35384921875e+04, 1.35384921875e+04, 1.35384921875e+04, 1.35384921875e+04, 1.35384921875e+04, 1.35384921875e+04, 1.35384921875e+04, 1.35384921875e+04, 1.35384921875e+04, 1.35384921875e+04, 1.35343515625e+04, 1.3521912109375e+04, 1.35094462890625e+04, 1.34969541015625e+04, 1.34844345703125e+04, 1.3471888671875e+04, 1.34593154296875e+04, 1.344671484375e+04, 1.3434087890625e+04, 1.3436615234375e+04, 1.34391416015625e+04, 1.34416669921875e+04, 1.344419140625e+04, 1.344671484375e+04, 1.34492373046875e+04, 1.34517587890625e+04, 1.34542783203125e+04, 1.346183203125e+04, 1.3471888671875e+04, 1.3481927734375e+04, 1.349194921875e+04, 1.35019541015625e+04, 1.351194140625e+04, 1.3521912109375e+04, 1.35318662109375e+04, 1.35401474609375e+04, 1.3545111328125e+04, 1.35500703125e+04, 1.35550263671875e+04, 1.35599775390625e+04, 1.3564923828125e+04, 1.35698671875e+04, 1.35748056640625e+04, 1.3579740234375e+04]
disSys.RL4.v[1]=[1.3579740234375e+04, 1.3579740234375e+04, 1.3579740234375e+04, 1.3579740234375e+04, 1.3579740234375e+04, 1.3579740234375e+04, 1.3579740234375e+04, 1.3579740234375e+04, 1.3579740234375e+04, 1.3579740234375e+04, 1.3579740234375e+04, 1.3579740234375e+04, 1.3579740234375e+04, 1.3579740234375e+04, 1.3579740234375e+04, 1.3579740234375e+04, 1.3579740234375e+04, 1.3579740234375e+04, 1.3579740234375e+04, 1.3579740234375e+04, 1.3579740234375e+04, 1.3579740234375e+04, 1.3579740234375e+04, 1.3579740234375e+04, 1.3579740234375e+04, 1.3579740234375e+04, 1.3562451171875e+04, 1.3545111328125e+04, 1.3527720703125e+04, 1.35102783203125e+04, 1.3492783203125e+04, 1.3475236328125e+04, 1.345763671875e+04, 1.34399833984375e+04, 1.34357724609375e+04, 1.34382998046875e+04, 1.34408251953125e+04, 1.34433505859375e+04, 1.34458740234375e+04, 1.3448396484375e+04, 1.345091796875e+04, 1.34534384765625e+04, 1.34584765625e+04, 1.34685380859375e+04, 1.34785830078125e+04, 1.34886103515625e+04, 1.349862109375e+04, 1.35086142578125e+04, 1.35185908203125e+04, 1.35285498046875e+04, 1.35384921875e+04, 1.35384921875e+04, 1.35384921875e+04, 1.35384921875e+04, 1.35384921875e+04, 1.35384921875e+04, 1.35384921875e+04, 1.35384921875e+04, 1.35384921875e+04, 1.35384921875e+04, 1.35384921875e+04, 1.35384921875e+04, 1.35384921875e+04, 1.35384921875e+04, 1.35384921875e+04, 1.35384921875e+04, 1.35384921875e+04, 1.35343515625e+04, 1.3521912109375e+04, 1.35094462890625e+04, 1.34969541015625e+04, 1.34844345703125e+04, 1.3471888671875e+04, 1.34593154296875e+04, 1.344671484375e+04, 1.3434087890625e+04, 1.3436615234375e+04, 1.34391416015625e+04, 1.34416669921875e+04, 1.344419140625e+04, 1.344671484375e+04, 1.34492373046875e+04, 1.34517587890625e+04, 1.34542783203125e+04, 1.346183203125e+04, 1.3471888671875e+04, 1.3481927734375e+04, 1.349194921875e+04, 1.35019541015625e+04, 1.351194140625e+04, 1.3521912109375e+04, 1.35318662109375e+04, 1.35401474609375e+04, 1.3545111328125e+04, 1.35500703125e+04, 1.35550263671875e+04, 1.35599775390625e+04, 1.3564923828125e+04, 1.35698671875e+04, 1.35748056640625e+04, 1.3579740234375e+04]
disSys.lin3.terminal_n.v[1]=[1.3579740234375e+04, 1.3579740234375e+04, 1.3579740234375e+04, 1.3579740234375e+04, 1.3579740234375e+04, 1.3579740234375e+04, 1.3579740234375e+04, 1.3579740234375e+04, 1.3579740234375e+04, 1.3579740234375e+04, 1.3579740234375e+04, 1.3579740234375e+04, 1.3579740234375e+04, 1.3579740234375e+04, 1.3579740234375e+04, 1.3579740234375e+04, 1.3579740234375e+04, 1.3579740234375e+04, 1.3579740234375e+04, 1.3579740234375e+04, 1.3579740234375e+04, 1.3579740234375e+04, 1.3579740234375e+04, 1.3579740234375e+04, 1.3579740234375e+04, 1.3579740234375e+04, 1.3562451171875e+04, 1.3545111328125e+04, 1.3527720703125e+04, 1.35102783203125e+04, 1.3492783203125e+04, 1.3475236328125e+04, 1.345763671875e+04, 1.34399833984375e+04, 1.34357724609375e+04, 1.34382998046875e+04, 1.34408251953125e+04, 1.34433505859375e+04, 1.34458740234375e+04, 1.3448396484375e+04, 1.345091796875e+04, 1.34534384765625e+04, 1.34584765625e+04, 1.34685380859375e+04, 1.34785830078125e+04, 1.34886103515625e+04, 1.349862109375e+04, 1.35086142578125e+04, 1.35185908203125e+04, 1.35285498046875e+04, 1.35384921875e+04, 1.35384921875e+04, 1.35384921875e+04, 1.35384921875e+04, 1.35384921875e+04, 1.35384921875e+04, 1.35384921875e+04, 1.35384921875e+04, 1.35384921875e+04, 1.35384921875e+04, 1.35384921875e+04, 1.35384921875e+04, 1.35384921875e+04, 1.35384921875e+04, 1.35384921875e+04, 1.35384921875e+04, 1.35384921875e+04, 1.35343515625e+04, 1.3521912109375e+04, 1.35094462890625e+04, 1.34969541015625e+04, 1.34844345703125e+04, 1.3471888671875e+04, 1.34593154296875e+04, 1.344671484375e+04, 1.3434087890625e+04, 1.3436615234375e+04, 1.34391416015625e+04, 1.34416669921875e+04, 1.344419140625e+04, 1.344671484375e+04, 1.34492373046875e+04, 1.34517587890625e+04, 1.34542783203125e+04, 1.346183203125e+04, 1.3471888671875e+04, 1.3481927734375e+04, 1.349194921875e+04, 1.35019541015625e+04, 1.351194140625e+04, 1.3521912109375e+04, 1.35318662109375e+04, 1.35401474609375e+04, 1.3545111328125e+04, 1.35500703125e+04, 1.35550263671875e+04, 1.35599775390625e+04, 1.3564923828125e+04, 1.35698671875e+04, 1.35748056640625e+04, 1.3579740234375e+04]
disSys.lin2.terminal_n.v[1]=[1.3579740234375e+04, 1.3579740234375e+04, 1.3579740234375e+04, 1.3579740234375e+04, 1.3579740234375e+04, 1.3579740234375e+04, 1.3579740234375e+04, 1.3579740234375e+04, 1.3579740234375e+04, 1.3579740234375e+04, 1.3579740234375e+04, 1.3579740234375e+04, 1.3579740234375e+04, 1.3579740234375e+04, 1.3579740234375e+04, 1.3579740234375e+04, 1.3579740234375e+04, 1.3579740234375e+04, 1.3579740234375e+04, 1.3579740234375e+04, 1.3579740234375e+04, 1.3579740234375e+04, 1.3579740234375e+04, 1.3579740234375e+04, 1.3579740234375e+04, 1.3579740234375e+04, 1.3562451171875e+04, 1.3545111328125e+04, 1.3527720703125e+04, 1.35102783203125e+04, 1.3492783203125e+04, 1.3475236328125e+04, 1.345763671875e+04, 1.34399833984375e+04, 1.34357724609375e+04, 1.34382998046875e+04, 1.34408251953125e+04, 1.34433505859375e+04, 1.34458740234375e+04, 1.3448396484375e+04, 1.345091796875e+04, 1.34534384765625e+04, 1.34584765625e+04, 1.34685380859375e+04, 1.34785830078125e+04, 1.34886103515625e+04, 1.349862109375e+04, 1.35086142578125e+04, 1.35185908203125e+04, 1.35285498046875e+04, 1.35384921875e+04, 1.35384921875e+04, 1.35384921875e+04, 1.35384921875e+04, 1.35384921875e+04, 1.35384921875e+04, 1.35384921875e+04, 1.35384921875e+04, 1.35384921875e+04, 1.35384921875e+04, 1.35384921875e+04, 1.35384921875e+04, 1.35384921875e+04, 1.35384921875e+04, 1.35384921875e+04, 1.35384921875e+04, 1.35384921875e+04, 1.35343515625e+04, 1.3521912109375e+04, 1.35094462890625e+04, 1.34969541015625e+04, 1.34844345703125e+04, 1.3471888671875e+04, 1.34593154296875e+04, 1.344671484375e+04, 1.3434087890625e+04, 1.3436615234375e+04, 1.34391416015625e+04, 1.34416669921875e+04, 1.344419140625e+04, 1.344671484375e+04, 1.34492373046875e+04, 1.34517587890625e+04, 1.34542783203125e+04, 1.346183203125e+04, 1.3471888671875e+04, 1.3481927734375e+04, 1.349194921875e+04, 1.35019541015625e+04, 1.351194140625e+04, 1.3521912109375e+04, 1.35318662109375e+04, 1.35401474609375e+04, 1.3545111328125e+04, 1.35500703125e+04, 1.35550263671875e+04, 1.35599775390625e+04, 1.3564923828125e+04, 1.35698671875e+04, 1.35748056640625e+04, 1.3579740234375e+04]
disSys.lin2.terminal_p.v[1]=[1.3576806640625e+04, 1.3576806640625e+04, 1.3576806640625e+04, 1.3576806640625e+04, 1.3576806640625e+04, 1.3576806640625e+04, 1.3576806640625e+04, 1.3576806640625e+04, 1.3576806640625e+04, 1.3576806640625e+04, 1.3576806640625e+04, 1.3576806640625e+04, 1.3576806640625e+04, 1.3576806640625e+04, 1.3576806640625e+04, 1.3576806640625e+04, 1.3576806640625e+04, 1.3576806640625e+04, 1.3576806640625e+04, 1.3576806640625e+04, 1.3576806640625e+04, 1.3576806640625e+04, 1.3576806640625e+04, 1.3576806640625e+04, 1.3576806640625e+04, 1.3576806640625e+04, 1.35570146484375e+04, 1.35371640625e+04, 1.3517255859375e+04, 1.34972880859375e+04, 1.34772607421875e+04, 1.3457173828125e+04, 1.34370263671875e+04, 1.34168173828125e+04, 1.34119970703125e+04, 1.34148896484375e+04, 1.341778125e+04, 1.34206708984375e+04, 1.3423560546875e+04, 1.34264482421875e+04, 1.34293349609375e+04, 1.34322197265625e+04, 1.3437986328125e+04, 1.3449505859375e+04, 1.34610048828125e+04, 1.34724833984375e+04, 1.3483943359375e+04, 1.34953828125e+04, 1.35068037109375e+04, 1.3518205078125e+04, 1.35295869140625e+04, 1.35295869140625e+04, 1.35295869140625e+04, 1.35295869140625e+04, 1.35295869140625e+04, 1.35295869140625e+04, 1.35295869140625e+04, 1.35295869140625e+04, 1.35295869140625e+04, 1.35295869140625e+04, 1.35295869140625e+04, 1.35295869140625e+04, 1.35295869140625e+04, 1.35295869140625e+04, 1.35295869140625e+04, 1.35295869140625e+04, 1.35295869140625e+04, 1.35248466796875e+04, 1.35106064453125e+04, 1.34963359375e+04, 1.34820341796875e+04, 1.3467703125e+04, 1.34533408203125e+04, 1.3438947265625e+04, 1.34245234375e+04, 1.34100673828125e+04, 1.34129609375e+04, 1.3415853515625e+04, 1.3418744140625e+04, 1.3421634765625e+04, 1.34245234375e+04, 1.342741015625e+04, 1.3430296875e+04, 1.3433181640625e+04, 1.3441828125e+04, 1.34533408203125e+04, 1.34648330078125e+04, 1.34763056640625e+04, 1.34877587890625e+04, 1.34991923828125e+04, 1.35106064453125e+04, 1.35220009765625e+04, 1.35314814453125e+04, 1.35371640625e+04, 1.3542841796875e+04, 1.35485146484375e+04, 1.3554181640625e+04, 1.3559845703125e+04, 1.356550390625e+04, 1.35711572265625e+04, 1.3576806640625e+04]
disSys.lin3.terminal_p.v[1]=[1.357627734375e+04, 1.357627734375e+04, 1.357627734375e+04, 1.357627734375e+04, 1.357627734375e+04, 1.357627734375e+04, 1.357627734375e+04, 1.357627734375e+04, 1.357627734375e+04, 1.357627734375e+04, 1.357627734375e+04, 1.357627734375e+04, 1.357627734375e+04, 1.357627734375e+04, 1.357627734375e+04, 1.357627734375e+04, 1.357627734375e+04, 1.357627734375e+04, 1.357627734375e+04, 1.357627734375e+04, 1.357627734375e+04, 1.357627734375e+04, 1.357627734375e+04, 1.357627734375e+04, 1.357627734375e+04, 1.357627734375e+04, 1.35560341796875e+04, 1.35357314453125e+04, 1.35153681640625e+04, 1.34949443359375e+04, 1.34744599609375e+04, 1.34539140625e+04, 1.34333056640625e+04, 1.34126337890625e+04, 1.3407703125e+04, 1.3410662109375e+04, 1.34136201171875e+04, 1.3416576171875e+04, 1.341953125e+04, 1.34224853515625e+04, 1.34254375e+04, 1.34283896484375e+04, 1.34342880859375e+04, 1.34460703125e+04, 1.345783203125e+04, 1.346957421875e+04, 1.3481294921875e+04, 1.349299609375e+04, 1.3504677734375e+04, 1.35163388671875e+04, 1.352798046875e+04, 1.352798046875e+04, 1.352798046875e+04, 1.352798046875e+04, 1.352798046875e+04, 1.352798046875e+04, 1.352798046875e+04, 1.352798046875e+04, 1.352798046875e+04, 1.352798046875e+04, 1.352798046875e+04, 1.352798046875e+04, 1.352798046875e+04, 1.352798046875e+04, 1.352798046875e+04, 1.352798046875e+04, 1.352798046875e+04, 1.35231328125e+04, 1.35085673828125e+04, 1.3493970703125e+04, 1.34793427734375e+04, 1.346468359375e+04, 1.34499931640625e+04, 1.34352705078125e+04, 1.34205166015625e+04, 1.34057294921875e+04, 1.3408689453125e+04, 1.34116484375e+04, 1.341460546875e+04, 1.34175615234375e+04, 1.34205166015625e+04, 1.34234697265625e+04, 1.3426421875e+04, 1.3429373046875e+04, 1.34382177734375e+04, 1.34499931640625e+04, 1.3461748046875e+04, 1.34734833984375e+04, 1.34851982421875e+04, 1.3496892578125e+04, 1.35085673828125e+04, 1.35202216796875e+04, 1.35299189453125e+04, 1.35357314453125e+04, 1.35415380859375e+04, 1.354733984375e+04, 1.355313671875e+04, 1.35589296875e+04, 1.3564716796875e+04, 1.35704990234375e+04, 1.357627734375e+04]
disSys.RL5.v[1]=[1.3576806640625e+04, 1.3576806640625e+04, 1.3576806640625e+04, 1.3576806640625e+04, 1.3576806640625e+04, 1.3576806640625e+04, 1.3576806640625e+04, 1.3576806640625e+04, 1.3576806640625e+04, 1.3576806640625e+04, 1.3576806640625e+04, 1.3576806640625e+04, 1.3576806640625e+04, 1.3576806640625e+04, 1.3576806640625e+04, 1.3576806640625e+04, 1.3576806640625e+04, 1.3576806640625e+04, 1.3576806640625e+04, 1.3576806640625e+04, 1.3576806640625e+04, 1.3576806640625e+04, 1.3576806640625e+04, 1.3576806640625e+04, 1.3576806640625e+04, 1.3576806640625e+04, 1.35570146484375e+04, 1.35371640625e+04, 1.3517255859375e+04, 1.34972880859375e+04, 1.34772607421875e+04, 1.3457173828125e+04, 1.34370263671875e+04, 1.34168173828125e+04, 1.34119970703125e+04, 1.34148896484375e+04, 1.341778125e+04, 1.34206708984375e+04, 1.3423560546875e+04, 1.34264482421875e+04, 1.34293349609375e+04, 1.34322197265625e+04, 1.3437986328125e+04, 1.3449505859375e+04, 1.34610048828125e+04, 1.34724833984375e+04, 1.3483943359375e+04, 1.34953828125e+04, 1.35068037109375e+04, 1.3518205078125e+04, 1.35295869140625e+04, 1.35295869140625e+04, 1.35295869140625e+04, 1.35295869140625e+04, 1.35295869140625e+04, 1.35295869140625e+04, 1.35295869140625e+04, 1.35295869140625e+04, 1.35295869140625e+04, 1.35295869140625e+04, 1.35295869140625e+04, 1.35295869140625e+04, 1.35295869140625e+04, 1.35295869140625e+04, 1.35295869140625e+04, 1.35295869140625e+04, 1.35295869140625e+04, 1.35248466796875e+04, 1.35106064453125e+04, 1.34963359375e+04, 1.34820341796875e+04, 1.3467703125e+04, 1.34533408203125e+04, 1.3438947265625e+04, 1.34245234375e+04, 1.34100673828125e+04, 1.34129609375e+04, 1.3415853515625e+04, 1.3418744140625e+04, 1.3421634765625e+04, 1.34245234375e+04, 1.342741015625e+04, 1.3430296875e+04, 1.3433181640625e+04, 1.3441828125e+04, 1.34533408203125e+04, 1.34648330078125e+04, 1.34763056640625e+04, 1.34877587890625e+04, 1.34991923828125e+04, 1.35106064453125e+04, 1.35220009765625e+04, 1.35314814453125e+04, 1.35371640625e+04, 1.3542841796875e+04, 1.35485146484375e+04, 1.3554181640625e+04, 1.3559845703125e+04, 1.356550390625e+04, 1.35711572265625e+04, 1.3576806640625e+04]
disSys.RL6.v[1]=[1.357627734375e+04, 1.357627734375e+04, 1.357627734375e+04, 1.357627734375e+04, 1.357627734375e+04, 1.357627734375e+04, 1.357627734375e+04, 1.357627734375e+04, 1.357627734375e+04, 1.357627734375e+04, 1.357627734375e+04, 1.357627734375e+04, 1.357627734375e+04, 1.357627734375e+04, 1.357627734375e+04, 1.357627734375e+04, 1.357627734375e+04, 1.357627734375e+04, 1.357627734375e+04, 1.357627734375e+04, 1.357627734375e+04, 1.357627734375e+04, 1.357627734375e+04, 1.357627734375e+04, 1.357627734375e+04, 1.357627734375e+04, 1.35560341796875e+04, 1.35357314453125e+04, 1.35153681640625e+04, 1.34949443359375e+04, 1.34744599609375e+04, 1.34539140625e+04, 1.34333056640625e+04, 1.34126337890625e+04, 1.3407703125e+04, 1.3410662109375e+04, 1.34136201171875e+04, 1.3416576171875e+04, 1.341953125e+04, 1.34224853515625e+04, 1.34254375e+04, 1.34283896484375e+04, 1.34342880859375e+04, 1.34460703125e+04, 1.345783203125e+04, 1.346957421875e+04, 1.3481294921875e+04, 1.349299609375e+04, 1.3504677734375e+04, 1.35163388671875e+04, 1.352798046875e+04, 1.352798046875e+04, 1.352798046875e+04, 1.352798046875e+04, 1.352798046875e+04, 1.352798046875e+04, 1.352798046875e+04, 1.352798046875e+04, 1.352798046875e+04, 1.352798046875e+04, 1.352798046875e+04, 1.352798046875e+04, 1.352798046875e+04, 1.352798046875e+04, 1.352798046875e+04, 1.352798046875e+04, 1.352798046875e+04, 1.35231328125e+04, 1.35085673828125e+04, 1.3493970703125e+04, 1.34793427734375e+04, 1.346468359375e+04, 1.34499931640625e+04, 1.34352705078125e+04, 1.34205166015625e+04, 1.34057294921875e+04, 1.3408689453125e+04, 1.34116484375e+04, 1.341460546875e+04, 1.34175615234375e+04, 1.34205166015625e+04, 1.34234697265625e+04, 1.3426421875e+04, 1.3429373046875e+04, 1.34382177734375e+04, 1.34499931640625e+04, 1.3461748046875e+04, 1.34734833984375e+04, 1.34851982421875e+04, 1.3496892578125e+04, 1.35085673828125e+04, 1.35202216796875e+04, 1.35299189453125e+04, 1.35357314453125e+04, 1.35415380859375e+04, 1.354733984375e+04, 1.355313671875e+04, 1.35589296875e+04, 1.3564716796875e+04, 1.35704990234375e+04, 1.357627734375e+04]
disSys.lin4.terminal_n.v[1]=[1.357627734375e+04, 1.357627734375e+04, 1.357627734375e+04, 1.357627734375e+04, 1.357627734375e+04, 1.357627734375e+04, 1.357627734375e+04, 1.357627734375e+04, 1.357627734375e+04, 1.357627734375e+04, 1.357627734375e+04, 1.357627734375e+04, 1.357627734375e+04, 1.357627734375e+04, 1.357627734375e+04, 1.357627734375e+04, 1.357627734375e+04, 1.357627734375e+04, 1.357627734375e+04, 1.357627734375e+04, 1.357627734375e+04, 1.357627734375e+04, 1.357627734375e+04, 1.357627734375e+04, 1.357627734375e+04, 1.357627734375e+04, 1.35560341796875e+04, 1.35357314453125e+04, 1.35153681640625e+04, 1.34949443359375e+04, 1.34744599609375e+04, 1.34539140625e+04, 1.34333056640625e+04, 1.34126337890625e+04, 1.3407703125e+04, 1.3410662109375e+04, 1.34136201171875e+04, 1.3416576171875e+04, 1.341953125e+04, 1.34224853515625e+04, 1.34254375e+04, 1.34283896484375e+04, 1.34342880859375e+04, 1.34460703125e+04, 1.345783203125e+04, 1.346957421875e+04, 1.3481294921875e+04, 1.349299609375e+04, 1.3504677734375e+04, 1.35163388671875e+04, 1.352798046875e+04, 1.352798046875e+04, 1.352798046875e+04, 1.352798046875e+04, 1.352798046875e+04, 1.352798046875e+04, 1.352798046875e+04, 1.352798046875e+04, 1.352798046875e+04, 1.352798046875e+04, 1.352798046875e+04, 1.352798046875e+04, 1.352798046875e+04, 1.352798046875e+04, 1.352798046875e+04, 1.352798046875e+04, 1.352798046875e+04, 1.35231328125e+04, 1.35085673828125e+04, 1.3493970703125e+04, 1.34793427734375e+04, 1.346468359375e+04, 1.34499931640625e+04, 1.34352705078125e+04, 1.34205166015625e+04, 1.34057294921875e+04, 1.3408689453125e+04, 1.34116484375e+04, 1.341460546875e+04, 1.34175615234375e+04, 1.34205166015625e+04, 1.34234697265625e+04, 1.3426421875e+04, 1.3429373046875e+04, 1.34382177734375e+04, 1.34499931640625e+04, 1.3461748046875e+04, 1.34734833984375e+04, 1.34851982421875e+04, 1.3496892578125e+04, 1.35085673828125e+04, 1.35202216796875e+04, 1.35299189453125e+04, 1.35357314453125e+04, 1.35415380859375e+04, 1.354733984375e+04, 1.355313671875e+04, 1.35589296875e+04, 1.3564716796875e+04, 1.35704990234375e+04, 1.357627734375e+04]
disSys.lin4.terminal_p.v[1]=[1.35748251953125e+04, 1.35748251953125e+04, 1.35748251953125e+04, 1.35748251953125e+04, 1.35748251953125e+04, 1.35748251953125e+04, 1.35748251953125e+04, 1.35748251953125e+04, 1.35748251953125e+04, 1.35748251953125e+04, 1.35748251953125e+04, 1.35748251953125e+04, 1.35748251953125e+04, 1.35748251953125e+04, 1.35748251953125e+04, 1.35748251953125e+04, 1.35748251953125e+04, 1.35748251953125e+04, 1.35748251953125e+04, 1.35748251953125e+04, 1.35748251953125e+04, 1.35748251953125e+04, 1.35748251953125e+04, 1.35748251953125e+04, 1.35748251953125e+04, 1.35748251953125e+04, 1.35533427734375e+04, 1.35317958984375e+04, 1.35101865234375e+04, 1.348851171875e+04, 1.34667724609375e+04, 1.34449677734375e+04, 1.342309765625e+04, 1.340116015625e+04, 1.33959267578125e+04, 1.33990673828125e+04, 1.34022060546875e+04, 1.340534375e+04, 1.34084794921875e+04, 1.34116142578125e+04, 1.3414748046875e+04, 1.34178798828125e+04, 1.3424140625e+04, 1.343664453125e+04, 1.34491259765625e+04, 1.34615869140625e+04, 1.34740263671875e+04, 1.34864443359375e+04, 1.34988408203125e+04, 1.3511216796875e+04, 1.35235712890625e+04, 1.35235712890625e+04, 1.35235712890625e+04, 1.35235712890625e+04, 1.35235712890625e+04, 1.35235712890625e+04, 1.35235712890625e+04, 1.35235712890625e+04, 1.35235712890625e+04, 1.35235712890625e+04, 1.35235712890625e+04, 1.35235712890625e+04, 1.35235712890625e+04, 1.35235712890625e+04, 1.35235712890625e+04, 1.35235712890625e+04, 1.35235712890625e+04, 1.351842578125e+04, 1.350296875e+04, 1.3487478515625e+04, 1.34719541015625e+04, 1.34563974609375e+04, 1.34408076171875e+04, 1.34251826171875e+04, 1.34095244140625e+04, 1.339383203125e+04, 1.33969736328125e+04, 1.340011328125e+04, 1.3403251953125e+04, 1.3406388671875e+04, 1.34095244140625e+04, 1.34126591796875e+04, 1.34157919921875e+04, 1.3418923828125e+04, 1.3428310546875e+04, 1.34408076171875e+04, 1.34532822265625e+04, 1.34657353515625e+04, 1.347816796875e+04, 1.34905791015625e+04, 1.350296875e+04, 1.35153369140625e+04, 1.35256279296875e+04, 1.35317958984375e+04, 1.3537958984375e+04, 1.35441162109375e+04, 1.35502685546875e+04, 1.35564150390625e+04, 1.3562556640625e+04, 1.3568693359375e+04, 1.35748251953125e+04]
disSys.RL7.v[1]=[1.35748251953125e+04, 1.35748251953125e+04, 1.35748251953125e+04, 1.35748251953125e+04, 1.35748251953125e+04, 1.35748251953125e+04, 1.35748251953125e+04, 1.35748251953125e+04, 1.35748251953125e+04, 1.35748251953125e+04, 1.35748251953125e+04, 1.35748251953125e+04, 1.35748251953125e+04, 1.35748251953125e+04, 1.35748251953125e+04, 1.35748251953125e+04, 1.35748251953125e+04, 1.35748251953125e+04, 1.35748251953125e+04, 1.35748251953125e+04, 1.35748251953125e+04, 1.35748251953125e+04, 1.35748251953125e+04, 1.35748251953125e+04, 1.35748251953125e+04, 1.35748251953125e+04, 1.35533427734375e+04, 1.35317958984375e+04, 1.35101865234375e+04, 1.348851171875e+04, 1.34667724609375e+04, 1.34449677734375e+04, 1.342309765625e+04, 1.340116015625e+04, 1.33959267578125e+04, 1.33990673828125e+04, 1.34022060546875e+04, 1.340534375e+04, 1.34084794921875e+04, 1.34116142578125e+04, 1.3414748046875e+04, 1.34178798828125e+04, 1.3424140625e+04, 1.343664453125e+04, 1.34491259765625e+04, 1.34615869140625e+04, 1.34740263671875e+04, 1.34864443359375e+04, 1.34988408203125e+04, 1.3511216796875e+04, 1.35235712890625e+04, 1.35235712890625e+04, 1.35235712890625e+04, 1.35235712890625e+04, 1.35235712890625e+04, 1.35235712890625e+04, 1.35235712890625e+04, 1.35235712890625e+04, 1.35235712890625e+04, 1.35235712890625e+04, 1.35235712890625e+04, 1.35235712890625e+04, 1.35235712890625e+04, 1.35235712890625e+04, 1.35235712890625e+04, 1.35235712890625e+04, 1.35235712890625e+04, 1.351842578125e+04, 1.350296875e+04, 1.3487478515625e+04, 1.34719541015625e+04, 1.34563974609375e+04, 1.34408076171875e+04, 1.34251826171875e+04, 1.34095244140625e+04, 1.339383203125e+04, 1.33969736328125e+04, 1.340011328125e+04, 1.3403251953125e+04, 1.3406388671875e+04, 1.34095244140625e+04, 1.34126591796875e+04, 1.34157919921875e+04, 1.3418923828125e+04, 1.3428310546875e+04, 1.34408076171875e+04, 1.34532822265625e+04, 1.34657353515625e+04, 1.347816796875e+04, 1.34905791015625e+04, 1.350296875e+04, 1.35153369140625e+04, 1.35256279296875e+04, 1.35317958984375e+04, 1.3537958984375e+04, 1.35441162109375e+04, 1.35502685546875e+04, 1.35564150390625e+04, 1.3562556640625e+04, 1.3568693359375e+04, 1.35748251953125e+04]
disSys.lin14.terminal_n.v[1]=[1.35758837890625e+04, 1.35758837890625e+04, 1.35758837890625e+04, 1.35758837890625e+04, 1.35758837890625e+04, 1.35758837890625e+04, 1.35758837890625e+04, 1.35758837890625e+04, 1.35758837890625e+04, 1.35758837890625e+04, 1.35758837890625e+04, 1.35758837890625e+04, 1.35758837890625e+04, 1.35758837890625e+04, 1.35758837890625e+04, 1.35758837890625e+04, 1.35758837890625e+04, 1.35758837890625e+04, 1.35758837890625e+04, 1.35758837890625e+04, 1.35758837890625e+04, 1.35758837890625e+04, 1.35758837890625e+04, 1.35758837890625e+04, 1.35758837890625e+04, 1.35758837890625e+04, 1.3555302734375e+04, 1.35346611328125e+04, 1.35139599609375e+04, 1.34931962890625e+04, 1.347237109375e+04, 1.3451484375e+04, 1.34305341796875e+04, 1.3409521484375e+04, 1.34045087890625e+04, 1.34075166015625e+04, 1.34105234375e+04, 1.34135283203125e+04, 1.3416533203125e+04, 1.341953515625e+04, 1.3422537109375e+04, 1.3425537109375e+04, 1.3431533203125e+04, 1.34435107421875e+04, 1.34554677734375e+04, 1.3467404296875e+04, 1.34793203125e+04, 1.34912158203125e+04, 1.35030908203125e+04, 1.35149462890625e+04, 1.35267822265625e+04, 1.35267822265625e+04, 1.35267822265625e+04, 1.35267822265625e+04, 1.35267822265625e+04, 1.35267822265625e+04, 1.35267822265625e+04, 1.35267822265625e+04, 1.35267822265625e+04, 1.35267822265625e+04, 1.35267822265625e+04, 1.35267822265625e+04, 1.35267822265625e+04, 1.35267822265625e+04, 1.35267822265625e+04, 1.35267822265625e+04, 1.35267822265625e+04, 1.3521853515625e+04, 1.3507044921875e+04, 1.34922060546875e+04, 1.34773359375e+04, 1.346243359375e+04, 1.34474990234375e+04, 1.34325322265625e+04, 1.34175341796875e+04, 1.34025029296875e+04, 1.340551171875e+04, 1.34085185546875e+04, 1.3411525390625e+04, 1.34145302734375e+04, 1.34175341796875e+04, 1.34205361328125e+04, 1.3423537109375e+04, 1.3426537109375e+04, 1.34355283203125e+04, 1.34474990234375e+04, 1.345944921875e+04, 1.34713779296875e+04, 1.3483287109375e+04, 1.34951767578125e+04, 1.3507044921875e+04, 1.351889453125e+04, 1.35287529296875e+04, 1.35346611328125e+04, 1.35405654296875e+04, 1.35464638671875e+04, 1.3552357421875e+04, 1.35582470703125e+04, 1.3564130859375e+04, 1.3570009765625e+04, 1.35758837890625e+04]
disSys.lin5.terminal_n.v[1]=[1.36e+04, 1.36e+04]
disSys.lin5.terminal_p.v[1]=[1.3582083984375e+04, 1.3582083984375e+04, 1.3582083984375e+04, 1.3582083984375e+04, 1.3582083984375e+04, 1.3582083984375e+04, 1.3582083984375e+04, 1.3582083984375e+04, 1.3582083984375e+04, 1.3582083984375e+04, 1.3582083984375e+04, 1.3582083984375e+04, 1.3582083984375e+04, 1.3582083984375e+04, 1.3582083984375e+04, 1.3582083984375e+04, 1.3582083984375e+04, 1.3582083984375e+04, 1.3582083984375e+04, 1.3582083984375e+04, 1.3582083984375e+04, 1.3582083984375e+04, 1.3582083984375e+04, 1.3582083984375e+04, 1.3582083984375e+04, 1.3582083984375e+04, 1.35667822265625e+04, 1.35514384765625e+04, 1.353605078125e+04, 1.35206181640625e+04, 1.3505142578125e+04, 1.348962109375e+04, 1.34740556640625e+04, 1.34584443359375e+04, 1.3454720703125e+04, 1.3456955078125e+04, 1.34591884765625e+04, 1.34614208984375e+04, 1.34636533203125e+04, 1.34658837890625e+04, 1.346811328125e+04, 1.34703427734375e+04, 1.34747978515625e+04, 1.3483697265625e+04, 1.34925810546875e+04, 1.3501451171875e+04, 1.35103056640625e+04, 1.3519146484375e+04, 1.352797265625e+04, 1.35367841796875e+04, 1.35455810546875e+04, 1.35455810546875e+04, 1.35455810546875e+04, 1.35455810546875e+04, 1.35455810546875e+04, 1.35455810546875e+04, 1.35455810546875e+04, 1.35455810546875e+04, 1.35455810546875e+04, 1.35455810546875e+04, 1.35455810546875e+04, 1.35455810546875e+04, 1.35455810546875e+04, 1.35455810546875e+04, 1.35455810546875e+04, 1.35455810546875e+04, 1.35455810546875e+04, 1.354191796875e+04, 1.35309111328125e+04, 1.35198828125e+04, 1.35088310546875e+04, 1.34977568359375e+04, 1.348666015625e+04, 1.34755400390625e+04, 1.3464396484375e+04, 1.345323046875e+04, 1.345546484375e+04, 1.345769921875e+04, 1.34599326171875e+04, 1.34621650390625e+04, 1.3464396484375e+04, 1.3466626953125e+04, 1.34688564453125e+04, 1.34710849609375e+04, 1.3477765625e+04, 1.348666015625e+04, 1.34955390625e+04, 1.3504404296875e+04, 1.35132548828125e+04, 1.352208984375e+04, 1.35309111328125e+04, 1.35397177734375e+04, 1.35470458984375e+04, 1.35514384765625e+04, 1.35558271484375e+04, 1.35602119140625e+04, 1.356459375e+04, 1.35689716796875e+04, 1.3573345703125e+04, 1.3577716796875e+04, 1.3582083984375e+04]
disSys.RL8.v[1]=[1.3582083984375e+04, 1.3582083984375e+04, 1.3582083984375e+04, 1.3582083984375e+04, 1.3582083984375e+04, 1.3582083984375e+04, 1.3582083984375e+04, 1.3582083984375e+04, 1.3582083984375e+04, 1.3582083984375e+04, 1.3582083984375e+04, 1.3582083984375e+04, 1.3582083984375e+04, 1.3582083984375e+04, 1.3582083984375e+04, 1.3582083984375e+04, 1.3582083984375e+04, 1.3582083984375e+04, 1.3582083984375e+04, 1.3582083984375e+04, 1.3582083984375e+04, 1.3582083984375e+04, 1.3582083984375e+04, 1.3582083984375e+04, 1.3582083984375e+04, 1.3582083984375e+04, 1.35667822265625e+04, 1.35514384765625e+04, 1.353605078125e+04, 1.35206181640625e+04, 1.3505142578125e+04, 1.348962109375e+04, 1.34740556640625e+04, 1.34584443359375e+04, 1.3454720703125e+04, 1.3456955078125e+04, 1.34591884765625e+04, 1.34614208984375e+04, 1.34636533203125e+04, 1.34658837890625e+04, 1.346811328125e+04, 1.34703427734375e+04, 1.34747978515625e+04, 1.3483697265625e+04, 1.34925810546875e+04, 1.3501451171875e+04, 1.35103056640625e+04, 1.3519146484375e+04, 1.352797265625e+04, 1.35367841796875e+04, 1.35455810546875e+04, 1.35455810546875e+04, 1.35455810546875e+04, 1.35455810546875e+04, 1.35455810546875e+04, 1.35455810546875e+04, 1.35455810546875e+04, 1.35455810546875e+04, 1.35455810546875e+04, 1.35455810546875e+04, 1.35455810546875e+04, 1.35455810546875e+04, 1.35455810546875e+04, 1.35455810546875e+04, 1.35455810546875e+04, 1.35455810546875e+04, 1.35455810546875e+04, 1.354191796875e+04, 1.35309111328125e+04, 1.35198828125e+04, 1.35088310546875e+04, 1.34977568359375e+04, 1.348666015625e+04, 1.34755400390625e+04, 1.3464396484375e+04, 1.345323046875e+04, 1.345546484375e+04, 1.345769921875e+04, 1.34599326171875e+04, 1.34621650390625e+04, 1.3464396484375e+04, 1.3466626953125e+04, 1.34688564453125e+04, 1.34710849609375e+04, 1.3477765625e+04, 1.348666015625e+04, 1.34955390625e+04, 1.3504404296875e+04, 1.35132548828125e+04, 1.352208984375e+04, 1.35309111328125e+04, 1.35397177734375e+04, 1.35470458984375e+04, 1.35514384765625e+04, 1.35558271484375e+04, 1.35602119140625e+04, 1.356459375e+04, 1.35689716796875e+04, 1.3573345703125e+04, 1.3577716796875e+04, 1.3582083984375e+04]
disSys.lin6.terminal_n.v[1]=[1.3582083984375e+04, 1.3582083984375e+04, 1.3582083984375e+04, 1.3582083984375e+04, 1.3582083984375e+04, 1.3582083984375e+04, 1.3582083984375e+04, 1.3582083984375e+04, 1.3582083984375e+04, 1.3582083984375e+04, 1.3582083984375e+04, 1.3582083984375e+04, 1.3582083984375e+04, 1.3582083984375e+04, 1.3582083984375e+04, 1.3582083984375e+04, 1.3582083984375e+04, 1.3582083984375e+04, 1.3582083984375e+04, 1.3582083984375e+04, 1.3582083984375e+04, 1.3582083984375e+04, 1.3582083984375e+04, 1.3582083984375e+04, 1.3582083984375e+04, 1.3582083984375e+04, 1.35667822265625e+04, 1.35514384765625e+04, 1.353605078125e+04, 1.35206181640625e+04, 1.3505142578125e+04, 1.348962109375e+04, 1.34740556640625e+04, 1.34584443359375e+04, 1.3454720703125e+04, 1.3456955078125e+04, 1.34591884765625e+04, 1.34614208984375e+04, 1.34636533203125e+04, 1.34658837890625e+04, 1.346811328125e+04, 1.34703427734375e+04, 1.34747978515625e+04, 1.3483697265625e+04, 1.34925810546875e+04, 1.3501451171875e+04, 1.35103056640625e+04, 1.3519146484375e+04, 1.352797265625e+04, 1.35367841796875e+04, 1.35455810546875e+04, 1.35455810546875e+04, 1.35455810546875e+04, 1.35455810546875e+04, 1.35455810546875e+04, 1.35455810546875e+04, 1.35455810546875e+04, 1.35455810546875e+04, 1.35455810546875e+04, 1.35455810546875e+04, 1.35455810546875e+04, 1.35455810546875e+04, 1.35455810546875e+04, 1.35455810546875e+04, 1.35455810546875e+04, 1.35455810546875e+04, 1.35455810546875e+04, 1.354191796875e+04, 1.35309111328125e+04, 1.35198828125e+04, 1.35088310546875e+04, 1.34977568359375e+04, 1.348666015625e+04, 1.34755400390625e+04, 1.3464396484375e+04, 1.345323046875e+04, 1.345546484375e+04, 1.345769921875e+04, 1.34599326171875e+04, 1.34621650390625e+04, 1.3464396484375e+04, 1.3466626953125e+04, 1.34688564453125e+04, 1.34710849609375e+04, 1.3477765625e+04, 1.348666015625e+04, 1.34955390625e+04, 1.3504404296875e+04, 1.35132548828125e+04, 1.352208984375e+04, 1.35309111328125e+04, 1.35397177734375e+04, 1.35470458984375e+04, 1.35514384765625e+04, 1.35558271484375e+04, 1.35602119140625e+04, 1.356459375e+04, 1.35689716796875e+04, 1.3573345703125e+04, 1.3577716796875e+04, 1.3582083984375e+04]
disSys.lin7.terminal_n.v[1]=[1.3582083984375e+04, 1.3582083984375e+04, 1.3582083984375e+04, 1.3582083984375e+04, 1.3582083984375e+04, 1.3582083984375e+04, 1.3582083984375e+04, 1.3582083984375e+04, 1.3582083984375e+04, 1.3582083984375e+04, 1.3582083984375e+04, 1.3582083984375e+04, 1.3582083984375e+04, 1.3582083984375e+04, 1.3582083984375e+04, 1.3582083984375e+04, 1.3582083984375e+04, 1.3582083984375e+04, 1.3582083984375e+04, 1.3582083984375e+04, 1.3582083984375e+04, 1.3582083984375e+04, 1.3582083984375e+04, 1.3582083984375e+04, 1.3582083984375e+04, 1.3582083984375e+04, 1.35667822265625e+04, 1.35514384765625e+04, 1.353605078125e+04, 1.35206181640625e+04, 1.3505142578125e+04, 1.348962109375e+04, 1.34740556640625e+04, 1.34584443359375e+04, 1.3454720703125e+04, 1.3456955078125e+04, 1.34591884765625e+04, 1.34614208984375e+04, 1.34636533203125e+04, 1.34658837890625e+04, 1.346811328125e+04, 1.34703427734375e+04, 1.34747978515625e+04, 1.3483697265625e+04, 1.34925810546875e+04, 1.3501451171875e+04, 1.35103056640625e+04, 1.3519146484375e+04, 1.352797265625e+04, 1.35367841796875e+04, 1.35455810546875e+04, 1.35455810546875e+04, 1.35455810546875e+04, 1.35455810546875e+04, 1.35455810546875e+04, 1.35455810546875e+04, 1.35455810546875e+04, 1.35455810546875e+04, 1.35455810546875e+04, 1.35455810546875e+04, 1.35455810546875e+04, 1.35455810546875e+04, 1.35455810546875e+04, 1.35455810546875e+04, 1.35455810546875e+04, 1.35455810546875e+04, 1.35455810546875e+04, 1.354191796875e+04, 1.35309111328125e+04, 1.35198828125e+04, 1.35088310546875e+04, 1.34977568359375e+04, 1.348666015625e+04, 1.34755400390625e+04, 1.3464396484375e+04, 1.345323046875e+04, 1.345546484375e+04, 1.345769921875e+04, 1.34599326171875e+04, 1.34621650390625e+04, 1.3464396484375e+04, 1.3466626953125e+04, 1.34688564453125e+04, 1.34710849609375e+04, 1.3477765625e+04, 1.348666015625e+04, 1.34955390625e+04, 1.3504404296875e+04, 1.35132548828125e+04, 1.352208984375e+04, 1.35309111328125e+04, 1.35397177734375e+04, 1.35470458984375e+04, 1.35514384765625e+04, 1.35558271484375e+04, 1.35602119140625e+04, 1.356459375e+04, 1.35689716796875e+04, 1.3573345703125e+04, 1.3577716796875e+04, 1.3582083984375e+04]
disSys.lin6.terminal_p.v[1]=[1.357697265625e+04, 1.357697265625e+04, 1.357697265625e+04, 1.357697265625e+04, 1.357697265625e+04, 1.357697265625e+04, 1.357697265625e+04, 1.357697265625e+04, 1.357697265625e+04, 1.357697265625e+04, 1.357697265625e+04, 1.357697265625e+04, 1.357697265625e+04, 1.357697265625e+04, 1.357697265625e+04, 1.357697265625e+04, 1.357697265625e+04, 1.357697265625e+04, 1.357697265625e+04, 1.357697265625e+04, 1.357697265625e+04, 1.357697265625e+04, 1.357697265625e+04, 1.357697265625e+04, 1.357697265625e+04, 1.357697265625e+04, 1.35573173828125e+04, 1.35376044921875e+04, 1.3517833984375e+04, 1.34980068359375e+04, 1.34781201171875e+04, 1.34581748046875e+04, 1.3438169921875e+04, 1.34181044921875e+04, 1.3413318359375e+04, 1.34161904296875e+04, 1.34190615234375e+04, 1.34219306640625e+04, 1.34247998046875e+04, 1.34276669921875e+04, 1.3430533203125e+04, 1.34333974609375e+04, 1.3439123046875e+04, 1.3450560546875e+04, 1.3461978515625e+04, 1.34733759765625e+04, 1.34847548828125e+04, 1.3496115234375e+04, 1.3507455078125e+04, 1.351877734375e+04, 1.3530080078125e+04, 1.3530080078125e+04, 1.3530080078125e+04, 1.3530080078125e+04, 1.3530080078125e+04, 1.3530080078125e+04, 1.3530080078125e+04, 1.3530080078125e+04, 1.3530080078125e+04, 1.3530080078125e+04, 1.3530080078125e+04, 1.3530080078125e+04, 1.3530080078125e+04, 1.3530080078125e+04, 1.3530080078125e+04, 1.3530080078125e+04, 1.3530080078125e+04, 1.3525373046875e+04, 1.35112314453125e+04, 1.3497060546875e+04, 1.34828603515625e+04, 1.34686298828125e+04, 1.34543681640625e+04, 1.34400771484375e+04, 1.34257548828125e+04, 1.341140234375e+04, 1.3414275390625e+04, 1.34171474609375e+04, 1.3420017578125e+04, 1.34228876953125e+04, 1.34257548828125e+04, 1.34286220703125e+04, 1.343148828125e+04, 1.34343525390625e+04, 1.34429375e+04, 1.34543681640625e+04, 1.3465779296875e+04, 1.3477171875e+04, 1.34885439453125e+04, 1.34998974609375e+04, 1.35112314453125e+04, 1.3522546875e+04, 1.35319619140625e+04, 1.35376044921875e+04, 1.35432421875e+04, 1.35488759765625e+04, 1.35545048828125e+04, 1.356012890625e+04, 1.3565748046875e+04, 1.35713623046875e+04, 1.357697265625e+04]
disSys.lin7.terminal_p.v[1]=[1.3580224609375e+04, 1.3580224609375e+04, 1.3580224609375e+04, 1.3580224609375e+04, 1.3580224609375e+04, 1.3580224609375e+04, 1.3580224609375e+04, 1.3580224609375e+04, 1.3580224609375e+04, 1.3580224609375e+04, 1.3580224609375e+04, 1.3580224609375e+04, 1.3580224609375e+04, 1.3580224609375e+04, 1.3580224609375e+04, 1.3580224609375e+04, 1.3580224609375e+04, 1.3580224609375e+04, 1.3580224609375e+04, 1.3580224609375e+04, 1.3580224609375e+04, 1.3580224609375e+04, 1.3580224609375e+04, 1.3580224609375e+04, 1.3580224609375e+04, 1.3580224609375e+04, 1.356333984375e+04, 1.35464072265625e+04, 1.3529427734375e+04, 1.3512400390625e+04, 1.349532421875e+04, 1.34782001953125e+04, 1.34610263671875e+04, 1.3443802734375e+04, 1.34396953125e+04, 1.344216015625e+04, 1.34446240234375e+04, 1.34470869140625e+04, 1.34495498046875e+04, 1.34520107421875e+04, 1.3454470703125e+04, 1.34569296875e+04, 1.34618447265625e+04, 1.34716630859375e+04, 1.348146484375e+04, 1.34912509765625e+04, 1.3501021484375e+04, 1.3510775390625e+04, 1.35205146484375e+04, 1.35302373046875e+04, 1.35399443359375e+04, 1.35399443359375e+04, 1.35399443359375e+04, 1.35399443359375e+04, 1.35399443359375e+04, 1.35399443359375e+04, 1.35399443359375e+04, 1.35399443359375e+04, 1.35399443359375e+04, 1.35399443359375e+04, 1.35399443359375e+04, 1.35399443359375e+04, 1.35399443359375e+04, 1.35399443359375e+04, 1.35399443359375e+04, 1.35399443359375e+04, 1.35399443359375e+04, 1.35359013671875e+04, 1.35237568359375e+04, 1.3511587890625e+04, 1.349939453125e+04, 1.348717578125e+04, 1.34749326171875e+04, 1.34626640625e+04, 1.34503701171875e+04, 1.343805078125e+04, 1.34405166015625e+04, 1.34429814453125e+04, 1.34454453125e+04, 1.3447908203125e+04, 1.34503701171875e+04, 1.34528310546875e+04, 1.3455291015625e+04, 1.34577490234375e+04, 1.3465119140625e+04, 1.34749326171875e+04, 1.34847294921875e+04, 1.3494509765625e+04, 1.35042744140625e+04, 1.35140234375e+04, 1.35237568359375e+04, 1.3533474609375e+04, 1.3541560546875e+04, 1.35464072265625e+04, 1.355125e+04, 1.35560888671875e+04, 1.3560923828125e+04, 1.35657548828125e+04, 1.357058203125e+04, 1.35754052734375e+04, 1.3580224609375e+04]
disSys.RL9.v[1]=[1.357697265625e+04, 1.357697265625e+04, 1.357697265625e+04, 1.357697265625e+04, 1.357697265625e+04, 1.357697265625e+04, 1.357697265625e+04, 1.357697265625e+04, 1.357697265625e+04, 1.357697265625e+04, 1.357697265625e+04, 1.357697265625e+04, 1.357697265625e+04, 1.357697265625e+04, 1.357697265625e+04, 1.357697265625e+04, 1.357697265625e+04, 1.357697265625e+04, 1.357697265625e+04, 1.357697265625e+04, 1.357697265625e+04, 1.357697265625e+04, 1.357697265625e+04, 1.357697265625e+04, 1.357697265625e+04, 1.357697265625e+04, 1.35573173828125e+04, 1.35376044921875e+04, 1.3517833984375e+04, 1.34980068359375e+04, 1.34781201171875e+04, 1.34581748046875e+04, 1.3438169921875e+04, 1.34181044921875e+04, 1.3413318359375e+04, 1.34161904296875e+04, 1.34190615234375e+04, 1.34219306640625e+04, 1.34247998046875e+04, 1.34276669921875e+04, 1.3430533203125e+04, 1.34333974609375e+04, 1.3439123046875e+04, 1.3450560546875e+04, 1.3461978515625e+04, 1.34733759765625e+04, 1.34847548828125e+04, 1.3496115234375e+04, 1.3507455078125e+04, 1.351877734375e+04, 1.3530080078125e+04, 1.3530080078125e+04, 1.3530080078125e+04, 1.3530080078125e+04, 1.3530080078125e+04, 1.3530080078125e+04, 1.3530080078125e+04, 1.3530080078125e+04, 1.3530080078125e+04, 1.3530080078125e+04, 1.3530080078125e+04, 1.3530080078125e+04, 1.3530080078125e+04, 1.3530080078125e+04, 1.3530080078125e+04, 1.3530080078125e+04, 1.3530080078125e+04, 1.3525373046875e+04, 1.35112314453125e+04, 1.3497060546875e+04, 1.34828603515625e+04, 1.34686298828125e+04, 1.34543681640625e+04, 1.34400771484375e+04, 1.34257548828125e+04, 1.341140234375e+04, 1.3414275390625e+04, 1.34171474609375e+04, 1.3420017578125e+04, 1.34228876953125e+04, 1.34257548828125e+04, 1.34286220703125e+04, 1.343148828125e+04, 1.34343525390625e+04, 1.34429375e+04, 1.34543681640625e+04, 1.3465779296875e+04, 1.3477171875e+04, 1.34885439453125e+04, 1.34998974609375e+04, 1.35112314453125e+04, 1.3522546875e+04, 1.35319619140625e+04, 1.35376044921875e+04, 1.35432421875e+04, 1.35488759765625e+04, 1.35545048828125e+04, 1.356012890625e+04, 1.3565748046875e+04, 1.35713623046875e+04, 1.357697265625e+04]
disSys.RL10.v[1]=[1.3580224609375e+04, 1.3580224609375e+04, 1.3580224609375e+04, 1.3580224609375e+04, 1.3580224609375e+04, 1.3580224609375e+04, 1.3580224609375e+04, 1.3580224609375e+04, 1.3580224609375e+04, 1.3580224609375e+04, 1.3580224609375e+04, 1.3580224609375e+04, 1.3580224609375e+04, 1.3580224609375e+04, 1.3580224609375e+04, 1.3580224609375e+04, 1.3580224609375e+04, 1.3580224609375e+04, 1.3580224609375e+04, 1.3580224609375e+04, 1.3580224609375e+04, 1.3580224609375e+04, 1.3580224609375e+04, 1.3580224609375e+04, 1.3580224609375e+04, 1.3580224609375e+04, 1.356333984375e+04, 1.35464072265625e+04, 1.3529427734375e+04, 1.3512400390625e+04, 1.349532421875e+04, 1.34782001953125e+04, 1.34610263671875e+04, 1.3443802734375e+04, 1.34396953125e+04, 1.344216015625e+04, 1.34446240234375e+04, 1.34470869140625e+04, 1.34495498046875e+04, 1.34520107421875e+04, 1.3454470703125e+04, 1.34569296875e+04, 1.34618447265625e+04, 1.34716630859375e+04, 1.348146484375e+04, 1.34912509765625e+04, 1.3501021484375e+04, 1.3510775390625e+04, 1.35205146484375e+04, 1.35302373046875e+04, 1.35399443359375e+04, 1.35399443359375e+04, 1.35399443359375e+04, 1.35399443359375e+04, 1.35399443359375e+04, 1.35399443359375e+04, 1.35399443359375e+04, 1.35399443359375e+04, 1.35399443359375e+04, 1.35399443359375e+04, 1.35399443359375e+04, 1.35399443359375e+04, 1.35399443359375e+04, 1.35399443359375e+04, 1.35399443359375e+04, 1.35399443359375e+04, 1.35399443359375e+04, 1.35359013671875e+04, 1.35237568359375e+04, 1.3511587890625e+04, 1.349939453125e+04, 1.348717578125e+04, 1.34749326171875e+04, 1.34626640625e+04, 1.34503701171875e+04, 1.343805078125e+04, 1.34405166015625e+04, 1.34429814453125e+04, 1.34454453125e+04, 1.3447908203125e+04, 1.34503701171875e+04, 1.34528310546875e+04, 1.3455291015625e+04, 1.34577490234375e+04, 1.3465119140625e+04, 1.34749326171875e+04, 1.34847294921875e+04, 1.3494509765625e+04, 1.35042744140625e+04, 1.35140234375e+04, 1.35237568359375e+04, 1.3533474609375e+04, 1.3541560546875e+04, 1.35464072265625e+04, 1.355125e+04, 1.35560888671875e+04, 1.3560923828125e+04, 1.35657548828125e+04, 1.357058203125e+04, 1.35754052734375e+04, 1.3580224609375e+04]
disSys.lin8.terminal_n.v[1]=[1.357697265625e+04, 1.357697265625e+04, 1.357697265625e+04, 1.357697265625e+04, 1.357697265625e+04, 1.357697265625e+04, 1.357697265625e+04, 1.357697265625e+04, 1.357697265625e+04, 1.357697265625e+04, 1.357697265625e+04, 1.357697265625e+04, 1.357697265625e+04, 1.357697265625e+04, 1.357697265625e+04, 1.357697265625e+04, 1.357697265625e+04, 1.357697265625e+04, 1.357697265625e+04, 1.357697265625e+04, 1.357697265625e+04, 1.357697265625e+04, 1.357697265625e+04, 1.357697265625e+04, 1.357697265625e+04, 1.357697265625e+04, 1.35573173828125e+04, 1.35376044921875e+04, 1.3517833984375e+04, 1.34980068359375e+04, 1.34781201171875e+04, 1.34581748046875e+04, 1.3438169921875e+04, 1.34181044921875e+04, 1.3413318359375e+04, 1.34161904296875e+04, 1.34190615234375e+04, 1.34219306640625e+04, 1.34247998046875e+04, 1.34276669921875e+04, 1.3430533203125e+04, 1.34333974609375e+04, 1.3439123046875e+04, 1.3450560546875e+04, 1.3461978515625e+04, 1.34733759765625e+04, 1.34847548828125e+04, 1.3496115234375e+04, 1.3507455078125e+04, 1.351877734375e+04, 1.3530080078125e+04, 1.3530080078125e+04, 1.3530080078125e+04, 1.3530080078125e+04, 1.3530080078125e+04, 1.3530080078125e+04, 1.3530080078125e+04, 1.3530080078125e+04, 1.3530080078125e+04, 1.3530080078125e+04, 1.3530080078125e+04, 1.3530080078125e+04, 1.3530080078125e+04, 1.3530080078125e+04, 1.3530080078125e+04, 1.3530080078125e+04, 1.3530080078125e+04, 1.3525373046875e+04, 1.35112314453125e+04, 1.3497060546875e+04, 1.34828603515625e+04, 1.34686298828125e+04, 1.34543681640625e+04, 1.34400771484375e+04, 1.34257548828125e+04, 1.341140234375e+04, 1.3414275390625e+04, 1.34171474609375e+04, 1.3420017578125e+04, 1.34228876953125e+04, 1.34257548828125e+04, 1.34286220703125e+04, 1.343148828125e+04, 1.34343525390625e+04, 1.34429375e+04, 1.34543681640625e+04, 1.3465779296875e+04, 1.3477171875e+04, 1.34885439453125e+04, 1.34998974609375e+04, 1.35112314453125e+04, 1.3522546875e+04, 1.35319619140625e+04, 1.35376044921875e+04, 1.35432421875e+04, 1.35488759765625e+04, 1.35545048828125e+04, 1.356012890625e+04, 1.3565748046875e+04, 1.35713623046875e+04, 1.357697265625e+04]
disSys.lin9.terminal_n.v[1]=[1.357697265625e+04, 1.357697265625e+04, 1.357697265625e+04, 1.357697265625e+04, 1.357697265625e+04, 1.357697265625e+04, 1.357697265625e+04, 1.357697265625e+04, 1.357697265625e+04, 1.357697265625e+04, 1.357697265625e+04, 1.357697265625e+04, 1.357697265625e+04, 1.357697265625e+04, 1.357697265625e+04, 1.357697265625e+04, 1.357697265625e+04, 1.357697265625e+04, 1.357697265625e+04, 1.357697265625e+04, 1.357697265625e+04, 1.357697265625e+04, 1.357697265625e+04, 1.357697265625e+04, 1.357697265625e+04, 1.357697265625e+04, 1.35573173828125e+04, 1.35376044921875e+04, 1.3517833984375e+04, 1.34980068359375e+04, 1.34781201171875e+04, 1.34581748046875e+04, 1.3438169921875e+04, 1.34181044921875e+04, 1.3413318359375e+04, 1.34161904296875e+04, 1.34190615234375e+04, 1.34219306640625e+04, 1.34247998046875e+04, 1.34276669921875e+04, 1.3430533203125e+04, 1.34333974609375e+04, 1.3439123046875e+04, 1.3450560546875e+04, 1.3461978515625e+04, 1.34733759765625e+04, 1.34847548828125e+04, 1.3496115234375e+04, 1.3507455078125e+04, 1.351877734375e+04, 1.3530080078125e+04, 1.3530080078125e+04, 1.3530080078125e+04, 1.3530080078125e+04, 1.3530080078125e+04, 1.3530080078125e+04, 1.3530080078125e+04, 1.3530080078125e+04, 1.3530080078125e+04, 1.3530080078125e+04, 1.3530080078125e+04, 1.3530080078125e+04, 1.3530080078125e+04, 1.3530080078125e+04, 1.3530080078125e+04, 1.3530080078125e+04, 1.3530080078125e+04, 1.3525373046875e+04, 1.35112314453125e+04, 1.3497060546875e+04, 1.34828603515625e+04, 1.34686298828125e+04, 1.34543681640625e+04, 1.34400771484375e+04, 1.34257548828125e+04, 1.341140234375e+04, 1.3414275390625e+04, 1.34171474609375e+04, 1.3420017578125e+04, 1.34228876953125e+04, 1.34257548828125e+04, 1.34286220703125e+04, 1.343148828125e+04, 1.34343525390625e+04, 1.34429375e+04, 1.34543681640625e+04, 1.3465779296875e+04, 1.3477171875e+04, 1.34885439453125e+04, 1.34998974609375e+04, 1.35112314453125e+04, 1.3522546875e+04, 1.35319619140625e+04, 1.35376044921875e+04, 1.35432421875e+04, 1.35488759765625e+04, 1.35545048828125e+04, 1.356012890625e+04, 1.3565748046875e+04, 1.35713623046875e+04, 1.357697265625e+04]
disSys.lin8.terminal_p.v[1]=[1.35758837890625e+04, 1.35758837890625e+04, 1.35758837890625e+04, 1.35758837890625e+04, 1.35758837890625e+04, 1.35758837890625e+04, 1.35758837890625e+04, 1.35758837890625e+04, 1.35758837890625e+04, 1.35758837890625e+04, 1.35758837890625e+04, 1.35758837890625e+04, 1.35758837890625e+04, 1.35758837890625e+04, 1.35758837890625e+04, 1.35758837890625e+04, 1.35758837890625e+04, 1.35758837890625e+04, 1.35758837890625e+04, 1.35758837890625e+04, 1.35758837890625e+04, 1.35758837890625e+04, 1.35758837890625e+04, 1.35758837890625e+04, 1.35758837890625e+04, 1.35758837890625e+04, 1.3555302734375e+04, 1.35346611328125e+04, 1.35139599609375e+04, 1.34931962890625e+04, 1.347237109375e+04, 1.3451484375e+04, 1.34305341796875e+04, 1.3409521484375e+04, 1.34045087890625e+04, 1.34075166015625e+04, 1.34105234375e+04, 1.34135283203125e+04, 1.3416533203125e+04, 1.341953515625e+04, 1.3422537109375e+04, 1.3425537109375e+04, 1.3431533203125e+04, 1.34435107421875e+04, 1.34554677734375e+04, 1.3467404296875e+04, 1.34793203125e+04, 1.34912158203125e+04, 1.35030908203125e+04, 1.35149462890625e+04, 1.35267822265625e+04, 1.35267822265625e+04, 1.35267822265625e+04, 1.35267822265625e+04, 1.35267822265625e+04, 1.35267822265625e+04, 1.35267822265625e+04, 1.35267822265625e+04, 1.35267822265625e+04, 1.35267822265625e+04, 1.35267822265625e+04, 1.35267822265625e+04, 1.35267822265625e+04, 1.35267822265625e+04, 1.35267822265625e+04, 1.35267822265625e+04, 1.35267822265625e+04, 1.3521853515625e+04, 1.3507044921875e+04, 1.34922060546875e+04, 1.34773359375e+04, 1.346243359375e+04, 1.34474990234375e+04, 1.34325322265625e+04, 1.34175341796875e+04, 1.34025029296875e+04, 1.340551171875e+04, 1.34085185546875e+04, 1.3411525390625e+04, 1.34145302734375e+04, 1.34175341796875e+04, 1.34205361328125e+04, 1.3423537109375e+04, 1.3426537109375e+04, 1.34355283203125e+04, 1.34474990234375e+04, 1.345944921875e+04, 1.34713779296875e+04, 1.3483287109375e+04, 1.34951767578125e+04, 1.3507044921875e+04, 1.351889453125e+04, 1.35287529296875e+04, 1.35346611328125e+04, 1.35405654296875e+04, 1.35464638671875e+04, 1.3552357421875e+04, 1.35582470703125e+04, 1.3564130859375e+04, 1.3570009765625e+04, 1.35758837890625e+04]
disSys.lin9.terminal_p.v[1]=[1.35749501953125e+04, 1.35749501953125e+04, 1.35749501953125e+04, 1.35749501953125e+04, 1.35749501953125e+04, 1.35749501953125e+04, 1.35749501953125e+04, 1.35749501953125e+04, 1.35749501953125e+04, 1.35749501953125e+04, 1.35749501953125e+04, 1.35749501953125e+04, 1.35749501953125e+04, 1.35749501953125e+04, 1.35749501953125e+04, 1.35749501953125e+04, 1.35749501953125e+04, 1.35749501953125e+04, 1.35749501953125e+04, 1.35749501953125e+04, 1.35749501953125e+04, 1.35749501953125e+04, 1.35749501953125e+04, 1.35749501953125e+04, 1.35749501953125e+04, 1.35749501953125e+04, 1.35535791015625e+04, 1.3532146484375e+04, 1.3510650390625e+04, 1.34890908203125e+04, 1.3467466796875e+04, 1.34457783203125e+04, 1.3424025390625e+04, 1.3402205078125e+04, 1.3397e+04, 1.34001240234375e+04, 1.340324609375e+04, 1.34063662109375e+04, 1.3409486328125e+04, 1.3412603515625e+04, 1.3415720703125e+04, 1.34188359375e+04, 1.34250625e+04, 1.34374990234375e+04, 1.34499150390625e+04, 1.34623095703125e+04, 1.34746826171875e+04, 1.34870341796875e+04, 1.3499365234375e+04, 1.351167578125e+04, 1.352396484375e+04, 1.352396484375e+04, 1.352396484375e+04, 1.352396484375e+04, 1.352396484375e+04, 1.352396484375e+04, 1.352396484375e+04, 1.352396484375e+04, 1.352396484375e+04, 1.352396484375e+04, 1.352396484375e+04, 1.352396484375e+04, 1.352396484375e+04, 1.352396484375e+04, 1.352396484375e+04, 1.352396484375e+04, 1.352396484375e+04, 1.35188466796875e+04, 1.3503470703125e+04, 1.34880625e+04, 1.347262109375e+04, 1.34571474609375e+04, 1.3441640625e+04, 1.3426099609375e+04, 1.3410525390625e+04, 1.33949169921875e+04, 1.33980419921875e+04, 1.34011650390625e+04, 1.34042861328125e+04, 1.340740625e+04, 1.3410525390625e+04, 1.3413642578125e+04, 1.34167587890625e+04, 1.34198740234375e+04, 1.34292099609375e+04, 1.3441640625e+04, 1.3454048828125e+04, 1.3466435546875e+04, 1.34788017578125e+04, 1.34911474609375e+04, 1.3503470703125e+04, 1.35157744140625e+04, 1.35260107421875e+04, 1.3532146484375e+04, 1.35382763671875e+04, 1.35444013671875e+04, 1.3550521484375e+04, 1.35566357421875e+04, 1.356274609375e+04, 1.35688505859375e+04, 1.35749501953125e+04]
disSys.RL11.v[1]=[1.35758837890625e+04, 1.35758837890625e+04, 1.35758837890625e+04, 1.35758837890625e+04, 1.35758837890625e+04, 1.35758837890625e+04, 1.35758837890625e+04, 1.35758837890625e+04, 1.35758837890625e+04, 1.35758837890625e+04, 1.35758837890625e+04, 1.35758837890625e+04, 1.35758837890625e+04, 1.35758837890625e+04, 1.35758837890625e+04, 1.35758837890625e+04, 1.35758837890625e+04, 1.35758837890625e+04, 1.35758837890625e+04, 1.35758837890625e+04, 1.35758837890625e+04, 1.35758837890625e+04, 1.35758837890625e+04, 1.35758837890625e+04, 1.35758837890625e+04, 1.35758837890625e+04, 1.3555302734375e+04, 1.35346611328125e+04, 1.35139599609375e+04, 1.34931962890625e+04, 1.347237109375e+04, 1.3451484375e+04, 1.34305341796875e+04, 1.3409521484375e+04, 1.34045087890625e+04, 1.34075166015625e+04, 1.34105234375e+04, 1.34135283203125e+04, 1.3416533203125e+04, 1.341953515625e+04, 1.3422537109375e+04, 1.3425537109375e+04, 1.3431533203125e+04, 1.34435107421875e+04, 1.34554677734375e+04, 1.3467404296875e+04, 1.34793203125e+04, 1.34912158203125e+04, 1.35030908203125e+04, 1.35149462890625e+04, 1.35267822265625e+04, 1.35267822265625e+04, 1.35267822265625e+04, 1.35267822265625e+04, 1.35267822265625e+04, 1.35267822265625e+04, 1.35267822265625e+04, 1.35267822265625e+04, 1.35267822265625e+04, 1.35267822265625e+04, 1.35267822265625e+04, 1.35267822265625e+04, 1.35267822265625e+04, 1.35267822265625e+04, 1.35267822265625e+04, 1.35267822265625e+04, 1.35267822265625e+04, 1.3521853515625e+04, 1.3507044921875e+04, 1.34922060546875e+04, 1.34773359375e+04, 1.346243359375e+04, 1.34474990234375e+04, 1.34325322265625e+04, 1.34175341796875e+04, 1.34025029296875e+04, 1.340551171875e+04, 1.34085185546875e+04, 1.3411525390625e+04, 1.34145302734375e+04, 1.34175341796875e+04, 1.34205361328125e+04, 1.3423537109375e+04, 1.3426537109375e+04, 1.34355283203125e+04, 1.34474990234375e+04, 1.345944921875e+04, 1.34713779296875e+04, 1.3483287109375e+04, 1.34951767578125e+04, 1.3507044921875e+04, 1.351889453125e+04, 1.35287529296875e+04, 1.35346611328125e+04, 1.35405654296875e+04, 1.35464638671875e+04, 1.3552357421875e+04, 1.35582470703125e+04, 1.3564130859375e+04, 1.3570009765625e+04, 1.35758837890625e+04]
disSys.RL12.v[1]=[1.35749501953125e+04, 1.35749501953125e+04, 1.35749501953125e+04, 1.35749501953125e+04, 1.35749501953125e+04, 1.35749501953125e+04, 1.35749501953125e+04, 1.35749501953125e+04, 1.35749501953125e+04, 1.35749501953125e+04, 1.35749501953125e+04, 1.35749501953125e+04, 1.35749501953125e+04, 1.35749501953125e+04, 1.35749501953125e+04, 1.35749501953125e+04, 1.35749501953125e+04, 1.35749501953125e+04, 1.35749501953125e+04, 1.35749501953125e+04, 1.35749501953125e+04, 1.35749501953125e+04, 1.35749501953125e+04, 1.35749501953125e+04, 1.35749501953125e+04, 1.35749501953125e+04, 1.35535791015625e+04, 1.3532146484375e+04, 1.3510650390625e+04, 1.34890908203125e+04, 1.3467466796875e+04, 1.34457783203125e+04, 1.3424025390625e+04, 1.3402205078125e+04, 1.3397e+04, 1.34001240234375e+04, 1.340324609375e+04, 1.34063662109375e+04, 1.3409486328125e+04, 1.3412603515625e+04, 1.3415720703125e+04, 1.34188359375e+04, 1.34250625e+04, 1.34374990234375e+04, 1.34499150390625e+04, 1.34623095703125e+04, 1.34746826171875e+04, 1.34870341796875e+04, 1.3499365234375e+04, 1.351167578125e+04, 1.352396484375e+04, 1.352396484375e+04, 1.352396484375e+04, 1.352396484375e+04, 1.352396484375e+04, 1.352396484375e+04, 1.352396484375e+04, 1.352396484375e+04, 1.352396484375e+04, 1.352396484375e+04, 1.352396484375e+04, 1.352396484375e+04, 1.352396484375e+04, 1.352396484375e+04, 1.352396484375e+04, 1.352396484375e+04, 1.352396484375e+04, 1.35188466796875e+04, 1.3503470703125e+04, 1.34880625e+04, 1.347262109375e+04, 1.34571474609375e+04, 1.3441640625e+04, 1.3426099609375e+04, 1.3410525390625e+04, 1.33949169921875e+04, 1.33980419921875e+04, 1.34011650390625e+04, 1.34042861328125e+04, 1.340740625e+04, 1.3410525390625e+04, 1.3413642578125e+04, 1.34167587890625e+04, 1.34198740234375e+04, 1.34292099609375e+04, 1.3441640625e+04, 1.3454048828125e+04, 1.3466435546875e+04, 1.34788017578125e+04, 1.34911474609375e+04, 1.3503470703125e+04, 1.35157744140625e+04, 1.35260107421875e+04, 1.3532146484375e+04, 1.35382763671875e+04, 1.35444013671875e+04, 1.3550521484375e+04, 1.35566357421875e+04, 1.356274609375e+04, 1.35688505859375e+04, 1.35749501953125e+04]
disSys.lin14.terminal_p.v[1]=[1.3576806640625e+04, 1.3576806640625e+04, 1.3576806640625e+04, 1.3576806640625e+04, 1.3576806640625e+04, 1.3576806640625e+04, 1.3576806640625e+04, 1.3576806640625e+04, 1.3576806640625e+04, 1.3576806640625e+04, 1.3576806640625e+04, 1.3576806640625e+04, 1.3576806640625e+04, 1.3576806640625e+04, 1.3576806640625e+04, 1.3576806640625e+04, 1.3576806640625e+04, 1.3576806640625e+04, 1.3576806640625e+04, 1.3576806640625e+04, 1.3576806640625e+04, 1.3576806640625e+04, 1.3576806640625e+04, 1.3576806640625e+04, 1.3576806640625e+04, 1.3576806640625e+04, 1.35570146484375e+04, 1.35371640625e+04, 1.3517255859375e+04, 1.34972880859375e+04, 1.34772607421875e+04, 1.3457173828125e+04, 1.34370263671875e+04, 1.34168173828125e+04, 1.34119970703125e+04, 1.34148896484375e+04, 1.341778125e+04, 1.34206708984375e+04, 1.3423560546875e+04, 1.34264482421875e+04, 1.34293349609375e+04, 1.34322197265625e+04, 1.3437986328125e+04, 1.3449505859375e+04, 1.34610048828125e+04, 1.34724833984375e+04, 1.3483943359375e+04, 1.34953828125e+04, 1.35068037109375e+04, 1.3518205078125e+04, 1.35295869140625e+04, 1.35295869140625e+04, 1.35295869140625e+04, 1.35295869140625e+04, 1.35295869140625e+04, 1.35295869140625e+04, 1.35295869140625e+04, 1.35295869140625e+04, 1.35295869140625e+04, 1.35295869140625e+04, 1.35295869140625e+04, 1.35295869140625e+04, 1.35295869140625e+04, 1.35295869140625e+04, 1.35295869140625e+04, 1.35295869140625e+04, 1.35295869140625e+04, 1.35248466796875e+04, 1.35106064453125e+04, 1.34963359375e+04, 1.34820341796875e+04, 1.3467703125e+04, 1.34533408203125e+04, 1.3438947265625e+04, 1.34245234375e+04, 1.34100673828125e+04, 1.34129609375e+04, 1.3415853515625e+04, 1.3418744140625e+04, 1.3421634765625e+04, 1.34245234375e+04, 1.342741015625e+04, 1.3430296875e+04, 1.3433181640625e+04, 1.3441828125e+04, 1.34533408203125e+04, 1.34648330078125e+04, 1.34763056640625e+04, 1.34877587890625e+04, 1.34991923828125e+04, 1.35106064453125e+04, 1.35220009765625e+04, 1.35314814453125e+04, 1.35371640625e+04, 1.3542841796875e+04, 1.35485146484375e+04, 1.3554181640625e+04, 1.3559845703125e+04, 1.356550390625e+04, 1.35711572265625e+04, 1.3576806640625e+04]
disSys.lin10.terminal_n.v[1]=[1.36e+04, 1.36e+04]
disSys.lin10.terminal_p.v[1]=[1.35825380859375e+04, 1.35825380859375e+04, 1.35825380859375e+04, 1.35825380859375e+04, 1.35825380859375e+04, 1.35825380859375e+04, 1.35825380859375e+04, 1.35825380859375e+04, 1.35825380859375e+04, 1.35825380859375e+04, 1.35825380859375e+04, 1.35825380859375e+04, 1.35825380859375e+04, 1.35825380859375e+04, 1.35825380859375e+04, 1.35825380859375e+04, 1.35825380859375e+04, 1.35825380859375e+04, 1.35825380859375e+04, 1.35825380859375e+04, 1.35825380859375e+04, 1.35825380859375e+04, 1.35825380859375e+04, 1.35825380859375e+04, 1.35825380859375e+04, 1.35825380859375e+04, 1.3567623046875e+04, 1.35526669921875e+04, 1.35376689453125e+04, 1.35226279296875e+04, 1.35075439453125e+04, 1.34924169921875e+04, 1.34772470703125e+04, 1.34620322265625e+04, 1.34584033203125e+04, 1.34605810546875e+04, 1.34627578125e+04, 1.346493359375e+04, 1.34671083984375e+04, 1.34692822265625e+04, 1.34714560546875e+04, 1.34736279296875e+04, 1.34779697265625e+04, 1.3486642578125e+04, 1.34953017578125e+04, 1.35039462890625e+04, 1.3512576171875e+04, 1.3521193359375e+04, 1.3529794921875e+04, 1.35383837890625e+04, 1.35469580078125e+04, 1.35469580078125e+04, 1.35469580078125e+04, 1.35469580078125e+04, 1.35469580078125e+04, 1.35469580078125e+04, 1.35469580078125e+04, 1.35469580078125e+04, 1.35469580078125e+04, 1.35469580078125e+04, 1.35469580078125e+04, 1.35469580078125e+04, 1.35469580078125e+04, 1.35469580078125e+04, 1.35469580078125e+04, 1.35469580078125e+04, 1.35469580078125e+04, 1.354338671875e+04, 1.35326591796875e+04, 1.352191015625e+04, 1.35111396484375e+04, 1.3500345703125e+04, 1.348953125e+04, 1.3478693359375e+04, 1.34678330078125e+04, 1.3456951171875e+04, 1.345912890625e+04, 1.3461306640625e+04, 1.34634833984375e+04, 1.3465658203125e+04, 1.34678330078125e+04, 1.34700068359375e+04, 1.34721796875e+04, 1.34743515625e+04, 1.34808623046875e+04, 1.348953125e+04, 1.34981845703125e+04, 1.350682421875e+04, 1.35154501953125e+04, 1.35240615234375e+04, 1.35326591796875e+04, 1.35412431640625e+04, 1.35483857421875e+04, 1.35526669921875e+04, 1.35569443359375e+04, 1.356121875e+04, 1.35654892578125e+04, 1.3569755859375e+04, 1.35740205078125e+04, 1.35782802734375e+04, 1.35825380859375e+04]
disSys.RL13.v[1]=[1.35825380859375e+04, 1.35825380859375e+04, 1.35825380859375e+04, 1.35825380859375e+04, 1.35825380859375e+04, 1.35825380859375e+04, 1.35825380859375e+04, 1.35825380859375e+04, 1.35825380859375e+04, 1.35825380859375e+04, 1.35825380859375e+04, 1.35825380859375e+04, 1.35825380859375e+04, 1.35825380859375e+04, 1.35825380859375e+04, 1.35825380859375e+04, 1.35825380859375e+04, 1.35825380859375e+04, 1.35825380859375e+04, 1.35825380859375e+04, 1.35825380859375e+04, 1.35825380859375e+04, 1.35825380859375e+04, 1.35825380859375e+04, 1.35825380859375e+04, 1.35825380859375e+04, 1.3567623046875e+04, 1.35526669921875e+04, 1.35376689453125e+04, 1.35226279296875e+04, 1.35075439453125e+04, 1.34924169921875e+04, 1.34772470703125e+04, 1.34620322265625e+04, 1.34584033203125e+04, 1.34605810546875e+04, 1.34627578125e+04, 1.346493359375e+04, 1.34671083984375e+04, 1.34692822265625e+04, 1.34714560546875e+04, 1.34736279296875e+04, 1.34779697265625e+04, 1.3486642578125e+04, 1.34953017578125e+04, 1.35039462890625e+04, 1.3512576171875e+04, 1.3521193359375e+04, 1.3529794921875e+04, 1.35383837890625e+04, 1.35469580078125e+04, 1.35469580078125e+04, 1.35469580078125e+04, 1.35469580078125e+04, 1.35469580078125e+04, 1.35469580078125e+04, 1.35469580078125e+04, 1.35469580078125e+04, 1.35469580078125e+04, 1.35469580078125e+04, 1.35469580078125e+04, 1.35469580078125e+04, 1.35469580078125e+04, 1.35469580078125e+04, 1.35469580078125e+04, 1.35469580078125e+04, 1.35469580078125e+04, 1.354338671875e+04, 1.35326591796875e+04, 1.352191015625e+04, 1.35111396484375e+04, 1.3500345703125e+04, 1.348953125e+04, 1.3478693359375e+04, 1.34678330078125e+04, 1.3456951171875e+04, 1.345912890625e+04, 1.3461306640625e+04, 1.34634833984375e+04, 1.3465658203125e+04, 1.34678330078125e+04, 1.34700068359375e+04, 1.34721796875e+04, 1.34743515625e+04, 1.34808623046875e+04, 1.348953125e+04, 1.34981845703125e+04, 1.350682421875e+04, 1.35154501953125e+04, 1.35240615234375e+04, 1.35326591796875e+04, 1.35412431640625e+04, 1.35483857421875e+04, 1.35526669921875e+04, 1.35569443359375e+04, 1.356121875e+04, 1.35654892578125e+04, 1.3569755859375e+04, 1.35740205078125e+04, 1.35782802734375e+04, 1.35825380859375e+04]
disSys.lin11.terminal_n.v[1]=[1.35825380859375e+04, 1.35825380859375e+04, 1.35825380859375e+04, 1.35825380859375e+04, 1.35825380859375e+04, 1.35825380859375e+04, 1.35825380859375e+04, 1.35825380859375e+04, 1.35825380859375e+04, 1.35825380859375e+04, 1.35825380859375e+04, 1.35825380859375e+04, 1.35825380859375e+04, 1.35825380859375e+04, 1.35825380859375e+04, 1.35825380859375e+04, 1.35825380859375e+04, 1.35825380859375e+04, 1.35825380859375e+04, 1.35825380859375e+04, 1.35825380859375e+04, 1.35825380859375e+04, 1.35825380859375e+04, 1.35825380859375e+04, 1.35825380859375e+04, 1.35825380859375e+04, 1.3567623046875e+04, 1.35526669921875e+04, 1.35376689453125e+04, 1.35226279296875e+04, 1.35075439453125e+04, 1.34924169921875e+04, 1.34772470703125e+04, 1.34620322265625e+04, 1.34584033203125e+04, 1.34605810546875e+04, 1.34627578125e+04, 1.346493359375e+04, 1.34671083984375e+04, 1.34692822265625e+04, 1.34714560546875e+04, 1.34736279296875e+04, 1.34779697265625e+04, 1.3486642578125e+04, 1.34953017578125e+04, 1.35039462890625e+04, 1.3512576171875e+04, 1.3521193359375e+04, 1.3529794921875e+04, 1.35383837890625e+04, 1.35469580078125e+04, 1.35469580078125e+04, 1.35469580078125e+04, 1.35469580078125e+04, 1.35469580078125e+04, 1.35469580078125e+04, 1.35469580078125e+04, 1.35469580078125e+04, 1.35469580078125e+04, 1.35469580078125e+04, 1.35469580078125e+04, 1.35469580078125e+04, 1.35469580078125e+04, 1.35469580078125e+04, 1.35469580078125e+04, 1.35469580078125e+04, 1.35469580078125e+04, 1.354338671875e+04, 1.35326591796875e+04, 1.352191015625e+04, 1.35111396484375e+04, 1.3500345703125e+04, 1.348953125e+04, 1.3478693359375e+04, 1.34678330078125e+04, 1.3456951171875e+04, 1.345912890625e+04, 1.3461306640625e+04, 1.34634833984375e+04, 1.3465658203125e+04, 1.34678330078125e+04, 1.34700068359375e+04, 1.34721796875e+04, 1.34743515625e+04, 1.34808623046875e+04, 1.348953125e+04, 1.34981845703125e+04, 1.350682421875e+04, 1.35154501953125e+04, 1.35240615234375e+04, 1.35326591796875e+04, 1.35412431640625e+04, 1.35483857421875e+04, 1.35526669921875e+04, 1.35569443359375e+04, 1.356121875e+04, 1.35654892578125e+04, 1.3569755859375e+04, 1.35740205078125e+04, 1.35782802734375e+04, 1.35825380859375e+04]
disSys.lin12.terminal_n.v[1]=[1.35825380859375e+04, 1.35825380859375e+04, 1.35825380859375e+04, 1.35825380859375e+04, 1.35825380859375e+04, 1.35825380859375e+04, 1.35825380859375e+04, 1.35825380859375e+04, 1.35825380859375e+04, 1.35825380859375e+04, 1.35825380859375e+04, 1.35825380859375e+04, 1.35825380859375e+04, 1.35825380859375e+04, 1.35825380859375e+04, 1.35825380859375e+04, 1.35825380859375e+04, 1.35825380859375e+04, 1.35825380859375e+04, 1.35825380859375e+04, 1.35825380859375e+04, 1.35825380859375e+04, 1.35825380859375e+04, 1.35825380859375e+04, 1.35825380859375e+04, 1.35825380859375e+04, 1.3567623046875e+04, 1.35526669921875e+04, 1.35376689453125e+04, 1.35226279296875e+04, 1.35075439453125e+04, 1.34924169921875e+04, 1.34772470703125e+04, 1.34620322265625e+04, 1.34584033203125e+04, 1.34605810546875e+04, 1.34627578125e+04, 1.346493359375e+04, 1.34671083984375e+04, 1.34692822265625e+04, 1.34714560546875e+04, 1.34736279296875e+04, 1.34779697265625e+04, 1.3486642578125e+04, 1.34953017578125e+04, 1.35039462890625e+04, 1.3512576171875e+04, 1.3521193359375e+04, 1.3529794921875e+04, 1.35383837890625e+04, 1.35469580078125e+04, 1.35469580078125e+04, 1.35469580078125e+04, 1.35469580078125e+04, 1.35469580078125e+04, 1.35469580078125e+04, 1.35469580078125e+04, 1.35469580078125e+04, 1.35469580078125e+04, 1.35469580078125e+04, 1.35469580078125e+04, 1.35469580078125e+04, 1.35469580078125e+04, 1.35469580078125e+04, 1.35469580078125e+04, 1.35469580078125e+04, 1.35469580078125e+04, 1.354338671875e+04, 1.35326591796875e+04, 1.352191015625e+04, 1.35111396484375e+04, 1.3500345703125e+04, 1.348953125e+04, 1.3478693359375e+04, 1.34678330078125e+04, 1.3456951171875e+04, 1.345912890625e+04, 1.3461306640625e+04, 1.34634833984375e+04, 1.3465658203125e+04, 1.34678330078125e+04, 1.34700068359375e+04, 1.34721796875e+04, 1.34743515625e+04, 1.34808623046875e+04, 1.348953125e+04, 1.34981845703125e+04, 1.350682421875e+04, 1.35154501953125e+04, 1.35240615234375e+04, 1.35326591796875e+04, 1.35412431640625e+04, 1.35483857421875e+04, 1.35526669921875e+04, 1.35569443359375e+04, 1.356121875e+04, 1.35654892578125e+04, 1.3569755859375e+04, 1.35740205078125e+04, 1.35782802734375e+04, 1.35825380859375e+04]
disSys.lin11.terminal_p.v[1]=[1.35803759765625e+04, 1.35803759765625e+04, 1.35803759765625e+04, 1.35803759765625e+04, 1.35803759765625e+04, 1.35803759765625e+04, 1.35803759765625e+04, 1.35803759765625e+04, 1.35803759765625e+04, 1.35803759765625e+04, 1.35803759765625e+04, 1.35803759765625e+04, 1.35803759765625e+04, 1.35803759765625e+04, 1.35803759765625e+04, 1.35803759765625e+04, 1.35803759765625e+04, 1.35803759765625e+04, 1.35803759765625e+04, 1.35803759765625e+04, 1.35803759765625e+04, 1.35803759765625e+04, 1.35803759765625e+04, 1.35803759765625e+04, 1.35803759765625e+04, 1.35803759765625e+04, 1.3563619140625e+04, 1.354681640625e+04, 1.3529966796875e+04, 1.35130703125e+04, 1.3496125e+04, 1.34791318359375e+04, 1.346208984375e+04, 1.34449990234375e+04, 1.34409228515625e+04, 1.3443369140625e+04, 1.3445814453125e+04, 1.34482587890625e+04, 1.34507021484375e+04, 1.345314453125e+04, 1.34555849609375e+04, 1.3458025390625e+04, 1.346290234375e+04, 1.34726455078125e+04, 1.34823720703125e+04, 1.34920830078125e+04, 1.35017783203125e+04, 1.35114580078125e+04, 1.35211220703125e+04, 1.35307705078125e+04, 1.35404033203125e+04, 1.35404033203125e+04, 1.35404033203125e+04, 1.35404033203125e+04, 1.35404033203125e+04, 1.35404033203125e+04, 1.35404033203125e+04, 1.35404033203125e+04, 1.35404033203125e+04, 1.35404033203125e+04, 1.35404033203125e+04, 1.35404033203125e+04, 1.35404033203125e+04, 1.35404033203125e+04, 1.35404033203125e+04, 1.35404033203125e+04, 1.35404033203125e+04, 1.35363916015625e+04, 1.352433984375e+04, 1.3512263671875e+04, 1.35001640625e+04, 1.34880390625e+04, 1.34758896484375e+04, 1.346371484375e+04, 1.3451515625e+04, 1.34392919921875e+04, 1.344173828125e+04, 1.34441845703125e+04, 1.344662890625e+04, 1.34490732421875e+04, 1.3451515625e+04, 1.34539580078125e+04, 1.34563984375e+04, 1.34588388671875e+04, 1.346615234375e+04, 1.34758896484375e+04, 1.3485611328125e+04, 1.349531640625e+04, 1.35050068359375e+04, 1.3514681640625e+04, 1.352433984375e+04, 1.35339833984375e+04, 1.35420078125e+04, 1.354681640625e+04, 1.35516220703125e+04, 1.3556423828125e+04, 1.35612216796875e+04, 1.35660166015625e+04, 1.3570806640625e+04, 1.35755927734375e+04, 1.35803759765625e+04]
disSys.lin12.terminal_p.v[1]=[1.35779560546875e+04, 1.35779560546875e+04, 1.35779560546875e+04, 1.35779560546875e+04, 1.35779560546875e+04, 1.35779560546875e+04, 1.35779560546875e+04, 1.35779560546875e+04, 1.35779560546875e+04, 1.35779560546875e+04, 1.35779560546875e+04, 1.35779560546875e+04, 1.35779560546875e+04, 1.35779560546875e+04, 1.35779560546875e+04, 1.35779560546875e+04, 1.35779560546875e+04, 1.35779560546875e+04, 1.35779560546875e+04, 1.35779560546875e+04, 1.35779560546875e+04, 1.35779560546875e+04, 1.35779560546875e+04, 1.35779560546875e+04, 1.35779560546875e+04, 1.35779560546875e+04, 1.35591376953125e+04, 1.3540265625e+04, 1.35213388671875e+04, 1.35023583984375e+04, 1.34833212890625e+04, 1.3464228515625e+04, 1.3445080078125e+04, 1.34258740234375e+04, 1.342129296875e+04, 1.34240419921875e+04, 1.34267900390625e+04, 1.34295361328125e+04, 1.34322822265625e+04, 1.34350263671875e+04, 1.343776953125e+04, 1.344051171875e+04, 1.34459931640625e+04, 1.34569404296875e+04, 1.34678701171875e+04, 1.34787802734375e+04, 1.34896728515625e+04, 1.35005478515625e+04, 1.35114033203125e+04, 1.35222421875e+04, 1.35330625e+04, 1.35330625e+04, 1.35330625e+04, 1.35330625e+04, 1.35330625e+04, 1.35330625e+04, 1.35330625e+04, 1.35330625e+04, 1.35330625e+04, 1.35330625e+04, 1.35330625e+04, 1.35330625e+04, 1.35330625e+04, 1.35330625e+04, 1.35330625e+04, 1.35330625e+04, 1.35330625e+04, 1.35285556640625e+04, 1.35150185546875e+04, 1.3501453125e+04, 1.3487859375e+04, 1.3474236328125e+04, 1.34605859375e+04, 1.344690625e+04, 1.3433197265625e+04, 1.3419458984375e+04, 1.3422208984375e+04, 1.34249580078125e+04, 1.3427705078125e+04, 1.34304521484375e+04, 1.3433197265625e+04, 1.343594140625e+04, 1.34386845703125e+04, 1.344142578125e+04, 1.344964453125e+04, 1.34605859375e+04, 1.34715087890625e+04, 1.34824130859375e+04, 1.34932998046875e+04, 1.350416796875e+04, 1.35150185546875e+04, 1.35258505859375e+04, 1.35348642578125e+04, 1.3540265625e+04, 1.35456630859375e+04, 1.3551056640625e+04, 1.35564453125e+04, 1.35618291015625e+04, 1.3567208984375e+04, 1.35725849609375e+04, 1.35779560546875e+04]
disSys.RL14.v[1]=[1.35803759765625e+04, 1.35803759765625e+04, 1.35803759765625e+04, 1.35803759765625e+04, 1.35803759765625e+04, 1.35803759765625e+04, 1.35803759765625e+04, 1.35803759765625e+04, 1.35803759765625e+04, 1.35803759765625e+04, 1.35803759765625e+04, 1.35803759765625e+04, 1.35803759765625e+04, 1.35803759765625e+04, 1.35803759765625e+04, 1.35803759765625e+04, 1.35803759765625e+04, 1.35803759765625e+04, 1.35803759765625e+04, 1.35803759765625e+04, 1.35803759765625e+04, 1.35803759765625e+04, 1.35803759765625e+04, 1.35803759765625e+04, 1.35803759765625e+04, 1.35803759765625e+04, 1.3563619140625e+04, 1.354681640625e+04, 1.3529966796875e+04, 1.35130703125e+04, 1.3496125e+04, 1.34791318359375e+04, 1.346208984375e+04, 1.34449990234375e+04, 1.34409228515625e+04, 1.3443369140625e+04, 1.3445814453125e+04, 1.34482587890625e+04, 1.34507021484375e+04, 1.345314453125e+04, 1.34555849609375e+04, 1.3458025390625e+04, 1.346290234375e+04, 1.34726455078125e+04, 1.34823720703125e+04, 1.34920830078125e+04, 1.35017783203125e+04, 1.35114580078125e+04, 1.35211220703125e+04, 1.35307705078125e+04, 1.35404033203125e+04, 1.35404033203125e+04, 1.35404033203125e+04, 1.35404033203125e+04, 1.35404033203125e+04, 1.35404033203125e+04, 1.35404033203125e+04, 1.35404033203125e+04, 1.35404033203125e+04, 1.35404033203125e+04, 1.35404033203125e+04, 1.35404033203125e+04, 1.35404033203125e+04, 1.35404033203125e+04, 1.35404033203125e+04, 1.35404033203125e+04, 1.35404033203125e+04, 1.35363916015625e+04, 1.352433984375e+04, 1.3512263671875e+04, 1.35001640625e+04, 1.34880390625e+04, 1.34758896484375e+04, 1.346371484375e+04, 1.3451515625e+04, 1.34392919921875e+04, 1.344173828125e+04, 1.34441845703125e+04, 1.344662890625e+04, 1.34490732421875e+04, 1.3451515625e+04, 1.34539580078125e+04, 1.34563984375e+04, 1.34588388671875e+04, 1.346615234375e+04, 1.34758896484375e+04, 1.3485611328125e+04, 1.349531640625e+04, 1.35050068359375e+04, 1.3514681640625e+04, 1.352433984375e+04, 1.35339833984375e+04, 1.35420078125e+04, 1.354681640625e+04, 1.35516220703125e+04, 1.3556423828125e+04, 1.35612216796875e+04, 1.35660166015625e+04, 1.3570806640625e+04, 1.35755927734375e+04, 1.35803759765625e+04]
disSys.RL15.v[1]=[1.35779560546875e+04, 1.35779560546875e+04, 1.35779560546875e+04, 1.35779560546875e+04, 1.35779560546875e+04, 1.35779560546875e+04, 1.35779560546875e+04, 1.35779560546875e+04, 1.35779560546875e+04, 1.35779560546875e+04, 1.35779560546875e+04, 1.35779560546875e+04, 1.35779560546875e+04, 1.35779560546875e+04, 1.35779560546875e+04, 1.35779560546875e+04, 1.35779560546875e+04, 1.35779560546875e+04, 1.35779560546875e+04, 1.35779560546875e+04, 1.35779560546875e+04, 1.35779560546875e+04, 1.35779560546875e+04, 1.35779560546875e+04, 1.35779560546875e+04, 1.35779560546875e+04, 1.35591376953125e+04, 1.3540265625e+04, 1.35213388671875e+04, 1.35023583984375e+04, 1.34833212890625e+04, 1.3464228515625e+04, 1.3445080078125e+04, 1.34258740234375e+04, 1.342129296875e+04, 1.34240419921875e+04, 1.34267900390625e+04, 1.34295361328125e+04, 1.34322822265625e+04, 1.34350263671875e+04, 1.343776953125e+04, 1.344051171875e+04, 1.34459931640625e+04, 1.34569404296875e+04, 1.34678701171875e+04, 1.34787802734375e+04, 1.34896728515625e+04, 1.35005478515625e+04, 1.35114033203125e+04, 1.35222421875e+04, 1.35330625e+04, 1.35330625e+04, 1.35330625e+04, 1.35330625e+04, 1.35330625e+04, 1.35330625e+04, 1.35330625e+04, 1.35330625e+04, 1.35330625e+04, 1.35330625e+04, 1.35330625e+04, 1.35330625e+04, 1.35330625e+04, 1.35330625e+04, 1.35330625e+04, 1.35330625e+04, 1.35330625e+04, 1.35285556640625e+04, 1.35150185546875e+04, 1.3501453125e+04, 1.3487859375e+04, 1.3474236328125e+04, 1.34605859375e+04, 1.344690625e+04, 1.3433197265625e+04, 1.3419458984375e+04, 1.3422208984375e+04, 1.34249580078125e+04, 1.3427705078125e+04, 1.34304521484375e+04, 1.3433197265625e+04, 1.343594140625e+04, 1.34386845703125e+04, 1.344142578125e+04, 1.344964453125e+04, 1.34605859375e+04, 1.34715087890625e+04, 1.34824130859375e+04, 1.34932998046875e+04, 1.350416796875e+04, 1.35150185546875e+04, 1.35258505859375e+04, 1.35348642578125e+04, 1.3540265625e+04, 1.35456630859375e+04, 1.3551056640625e+04, 1.35564453125e+04, 1.35618291015625e+04, 1.3567208984375e+04, 1.35725849609375e+04, 1.35779560546875e+04]
disSys.lin13.terminal_n.v[1]=[1.35779560546875e+04, 1.35779560546875e+04, 1.35779560546875e+04, 1.35779560546875e+04, 1.35779560546875e+04, 1.35779560546875e+04, 1.35779560546875e+04, 1.35779560546875e+04, 1.35779560546875e+04, 1.35779560546875e+04, 1.35779560546875e+04, 1.35779560546875e+04, 1.35779560546875e+04, 1.35779560546875e+04, 1.35779560546875e+04, 1.35779560546875e+04, 1.35779560546875e+04, 1.35779560546875e+04, 1.35779560546875e+04, 1.35779560546875e+04, 1.35779560546875e+04, 1.35779560546875e+04, 1.35779560546875e+04, 1.35779560546875e+04, 1.35779560546875e+04, 1.35779560546875e+04, 1.35591376953125e+04, 1.3540265625e+04, 1.35213388671875e+04, 1.35023583984375e+04, 1.34833212890625e+04, 1.3464228515625e+04, 1.3445080078125e+04, 1.34258740234375e+04, 1.342129296875e+04, 1.34240419921875e+04, 1.34267900390625e+04, 1.34295361328125e+04, 1.34322822265625e+04, 1.34350263671875e+04, 1.343776953125e+04, 1.344051171875e+04, 1.34459931640625e+04, 1.34569404296875e+04, 1.34678701171875e+04, 1.34787802734375e+04, 1.34896728515625e+04, 1.35005478515625e+04, 1.35114033203125e+04, 1.35222421875e+04, 1.35330625e+04, 1.35330625e+04, 1.35330625e+04, 1.35330625e+04, 1.35330625e+04, 1.35330625e+04, 1.35330625e+04, 1.35330625e+04, 1.35330625e+04, 1.35330625e+04, 1.35330625e+04, 1.35330625e+04, 1.35330625e+04, 1.35330625e+04, 1.35330625e+04, 1.35330625e+04, 1.35330625e+04, 1.35285556640625e+04, 1.35150185546875e+04, 1.3501453125e+04, 1.3487859375e+04, 1.3474236328125e+04, 1.34605859375e+04, 1.344690625e+04, 1.3433197265625e+04, 1.3419458984375e+04, 1.3422208984375e+04, 1.34249580078125e+04, 1.3427705078125e+04, 1.34304521484375e+04, 1.3433197265625e+04, 1.343594140625e+04, 1.34386845703125e+04, 1.344142578125e+04, 1.344964453125e+04, 1.34605859375e+04, 1.34715087890625e+04, 1.34824130859375e+04, 1.34932998046875e+04, 1.350416796875e+04, 1.35150185546875e+04, 1.35258505859375e+04, 1.35348642578125e+04, 1.3540265625e+04, 1.35456630859375e+04, 1.3551056640625e+04, 1.35564453125e+04, 1.35618291015625e+04, 1.3567208984375e+04, 1.35725849609375e+04, 1.35779560546875e+04]
disSys.lin13.terminal_p.v[1]=[1.3575384765625e+04, 1.3575384765625e+04, 1.3575384765625e+04, 1.3575384765625e+04, 1.3575384765625e+04, 1.3575384765625e+04, 1.3575384765625e+04, 1.3575384765625e+04, 1.3575384765625e+04, 1.3575384765625e+04, 1.3575384765625e+04, 1.3575384765625e+04, 1.3575384765625e+04, 1.3575384765625e+04, 1.3575384765625e+04, 1.3575384765625e+04, 1.3575384765625e+04, 1.3575384765625e+04, 1.3575384765625e+04, 1.3575384765625e+04, 1.3575384765625e+04, 1.3575384765625e+04, 1.3575384765625e+04, 1.3575384765625e+04, 1.3575384765625e+04, 1.3575384765625e+04, 1.3554376953125e+04, 1.35333076171875e+04, 1.35121767578125e+04, 1.34909833984375e+04, 1.34697275390625e+04, 1.34484072265625e+04, 1.34270234375e+04, 1.34055751953125e+04, 1.3400458984375e+04, 1.3403529296875e+04, 1.340659765625e+04, 1.34096650390625e+04, 1.34127314453125e+04, 1.3415796875e+04, 1.34188603515625e+04, 1.34219228515625e+04, 1.342804296875e+04, 1.34402685546875e+04, 1.34524736328125e+04, 1.34646572265625e+04, 1.34768193359375e+04, 1.34889619140625e+04, 1.35010830078125e+04, 1.35131845703125e+04, 1.3525265625e+04, 1.3525265625e+04, 1.3525265625e+04, 1.3525265625e+04, 1.3525265625e+04, 1.3525265625e+04, 1.3525265625e+04, 1.3525265625e+04, 1.3525265625e+04, 1.3525265625e+04, 1.3525265625e+04, 1.3525265625e+04, 1.3525265625e+04, 1.3525265625e+04, 1.3525265625e+04, 1.3525265625e+04, 1.3525265625e+04, 1.3520234375e+04, 1.3505119140625e+04, 1.348997265625e+04, 1.34747939453125e+04, 1.34595830078125e+04, 1.34443388671875e+04, 1.34290625e+04, 1.341375390625e+04, 1.33984111328125e+04, 1.3401482421875e+04, 1.34045517578125e+04, 1.34076201171875e+04, 1.34106875e+04, 1.341375390625e+04, 1.3416818359375e+04, 1.3419880859375e+04, 1.3422943359375e+04, 1.343212109375e+04, 1.34443388671875e+04, 1.3456537109375e+04, 1.34687138671875e+04, 1.3480869140625e+04, 1.34930048828125e+04, 1.3505119140625e+04, 1.35172138671875e+04, 1.35272763671875e+04, 1.35333076171875e+04, 1.3539333984375e+04, 1.35453544921875e+04, 1.355137109375e+04, 1.35573818359375e+04, 1.35633876953125e+04, 1.3569388671875e+04, 1.3575384765625e+04]
disSys.lin16.terminal_n.v[1]=[1.3575384765625e+04, 1.3575384765625e+04, 1.3575384765625e+04, 1.3575384765625e+04, 1.3575384765625e+04, 1.3575384765625e+04, 1.3575384765625e+04, 1.3575384765625e+04, 1.3575384765625e+04, 1.3575384765625e+04, 1.3575384765625e+04, 1.3575384765625e+04, 1.3575384765625e+04, 1.3575384765625e+04, 1.3575384765625e+04, 1.3575384765625e+04, 1.3575384765625e+04, 1.3575384765625e+04, 1.3575384765625e+04, 1.3575384765625e+04, 1.3575384765625e+04, 1.3575384765625e+04, 1.3575384765625e+04, 1.3575384765625e+04, 1.3575384765625e+04, 1.3575384765625e+04, 1.3554376953125e+04, 1.35333076171875e+04, 1.35121767578125e+04, 1.34909833984375e+04, 1.34697275390625e+04, 1.34484072265625e+04, 1.34270234375e+04, 1.34055751953125e+04, 1.3400458984375e+04, 1.3403529296875e+04, 1.340659765625e+04, 1.34096650390625e+04, 1.34127314453125e+04, 1.3415796875e+04, 1.34188603515625e+04, 1.34219228515625e+04, 1.342804296875e+04, 1.34402685546875e+04, 1.34524736328125e+04, 1.34646572265625e+04, 1.34768193359375e+04, 1.34889619140625e+04, 1.35010830078125e+04, 1.35131845703125e+04, 1.3525265625e+04, 1.3525265625e+04, 1.3525265625e+04, 1.3525265625e+04, 1.3525265625e+04, 1.3525265625e+04, 1.3525265625e+04, 1.3525265625e+04, 1.3525265625e+04, 1.3525265625e+04, 1.3525265625e+04, 1.3525265625e+04, 1.3525265625e+04, 1.3525265625e+04, 1.3525265625e+04, 1.3525265625e+04, 1.3525265625e+04, 1.3520234375e+04, 1.3505119140625e+04, 1.348997265625e+04, 1.34747939453125e+04, 1.34595830078125e+04, 1.34443388671875e+04, 1.34290625e+04, 1.341375390625e+04, 1.33984111328125e+04, 1.3401482421875e+04, 1.34045517578125e+04, 1.34076201171875e+04, 1.34106875e+04, 1.341375390625e+04, 1.3416818359375e+04, 1.3419880859375e+04, 1.3422943359375e+04, 1.343212109375e+04, 1.34443388671875e+04, 1.3456537109375e+04, 1.34687138671875e+04, 1.3480869140625e+04, 1.34930048828125e+04, 1.3505119140625e+04, 1.35172138671875e+04, 1.35272763671875e+04, 1.35333076171875e+04, 1.3539333984375e+04, 1.35453544921875e+04, 1.355137109375e+04, 1.35573818359375e+04, 1.35633876953125e+04, 1.3569388671875e+04, 1.3575384765625e+04]
disSys.lin16.terminal_p.v[1]=[1.35748251953125e+04, 1.35748251953125e+04, 1.35748251953125e+04, 1.35748251953125e+04, 1.35748251953125e+04, 1.35748251953125e+04, 1.35748251953125e+04, 1.35748251953125e+04, 1.35748251953125e+04, 1.35748251953125e+04, 1.35748251953125e+04, 1.35748251953125e+04, 1.35748251953125e+04, 1.35748251953125e+04, 1.35748251953125e+04, 1.35748251953125e+04, 1.35748251953125e+04, 1.35748251953125e+04, 1.35748251953125e+04, 1.35748251953125e+04, 1.35748251953125e+04, 1.35748251953125e+04, 1.35748251953125e+04, 1.35748251953125e+04, 1.35748251953125e+04, 1.35748251953125e+04, 1.35533427734375e+04, 1.35317958984375e+04, 1.35101865234375e+04, 1.348851171875e+04, 1.34667724609375e+04, 1.34449677734375e+04, 1.342309765625e+04, 1.340116015625e+04, 1.33959267578125e+04, 1.33990673828125e+04, 1.34022060546875e+04, 1.340534375e+04, 1.34084794921875e+04, 1.34116142578125e+04, 1.3414748046875e+04, 1.34178798828125e+04, 1.3424140625e+04, 1.343664453125e+04, 1.34491259765625e+04, 1.34615869140625e+04, 1.34740263671875e+04, 1.34864443359375e+04, 1.34988408203125e+04, 1.3511216796875e+04, 1.35235712890625e+04, 1.35235712890625e+04, 1.35235712890625e+04, 1.35235712890625e+04, 1.35235712890625e+04, 1.35235712890625e+04, 1.35235712890625e+04, 1.35235712890625e+04, 1.35235712890625e+04, 1.35235712890625e+04, 1.35235712890625e+04, 1.35235712890625e+04, 1.35235712890625e+04, 1.35235712890625e+04, 1.35235712890625e+04, 1.35235712890625e+04, 1.35235712890625e+04, 1.351842578125e+04, 1.350296875e+04, 1.3487478515625e+04, 1.34719541015625e+04, 1.34563974609375e+04, 1.34408076171875e+04, 1.34251826171875e+04, 1.34095244140625e+04, 1.339383203125e+04, 1.33969736328125e+04, 1.340011328125e+04, 1.3403251953125e+04, 1.3406388671875e+04, 1.34095244140625e+04, 1.34126591796875e+04, 1.34157919921875e+04, 1.3418923828125e+04, 1.3428310546875e+04, 1.34408076171875e+04, 1.34532822265625e+04, 1.34657353515625e+04, 1.347816796875e+04, 1.34905791015625e+04, 1.350296875e+04, 1.35153369140625e+04, 1.35256279296875e+04, 1.35317958984375e+04, 1.3537958984375e+04, 1.35441162109375e+04, 1.35502685546875e+04, 1.35564150390625e+04, 1.3562556640625e+04, 1.3568693359375e+04, 1.35748251953125e+04]
disSys.lin15.terminal_n.v[1]=[1.35803759765625e+04, 1.35803759765625e+04, 1.35803759765625e+04, 1.35803759765625e+04, 1.35803759765625e+04, 1.35803759765625e+04, 1.35803759765625e+04, 1.35803759765625e+04, 1.35803759765625e+04, 1.35803759765625e+04, 1.35803759765625e+04, 1.35803759765625e+04, 1.35803759765625e+04, 1.35803759765625e+04, 1.35803759765625e+04, 1.35803759765625e+04, 1.35803759765625e+04, 1.35803759765625e+04, 1.35803759765625e+04, 1.35803759765625e+04, 1.35803759765625e+04, 1.35803759765625e+04, 1.35803759765625e+04, 1.35803759765625e+04, 1.35803759765625e+04, 1.35803759765625e+04, 1.3563619140625e+04, 1.354681640625e+04, 1.3529966796875e+04, 1.35130703125e+04, 1.3496125e+04, 1.34791318359375e+04, 1.346208984375e+04, 1.34449990234375e+04, 1.34409228515625e+04, 1.3443369140625e+04, 1.3445814453125e+04, 1.34482587890625e+04, 1.34507021484375e+04, 1.345314453125e+04, 1.34555849609375e+04, 1.3458025390625e+04, 1.346290234375e+04, 1.34726455078125e+04, 1.34823720703125e+04, 1.34920830078125e+04, 1.35017783203125e+04, 1.35114580078125e+04, 1.35211220703125e+04, 1.35307705078125e+04, 1.35404033203125e+04, 1.35404033203125e+04, 1.35404033203125e+04, 1.35404033203125e+04, 1.35404033203125e+04, 1.35404033203125e+04, 1.35404033203125e+04, 1.35404033203125e+04, 1.35404033203125e+04, 1.35404033203125e+04, 1.35404033203125e+04, 1.35404033203125e+04, 1.35404033203125e+04, 1.35404033203125e+04, 1.35404033203125e+04, 1.35404033203125e+04, 1.35404033203125e+04, 1.35363916015625e+04, 1.352433984375e+04, 1.3512263671875e+04, 1.35001640625e+04, 1.34880390625e+04, 1.34758896484375e+04, 1.346371484375e+04, 1.3451515625e+04, 1.34392919921875e+04, 1.344173828125e+04, 1.34441845703125e+04, 1.344662890625e+04, 1.34490732421875e+04, 1.3451515625e+04, 1.34539580078125e+04, 1.34563984375e+04, 1.34588388671875e+04, 1.346615234375e+04, 1.34758896484375e+04, 1.3485611328125e+04, 1.349531640625e+04, 1.35050068359375e+04, 1.3514681640625e+04, 1.352433984375e+04, 1.35339833984375e+04, 1.35420078125e+04, 1.354681640625e+04, 1.35516220703125e+04, 1.3556423828125e+04, 1.35612216796875e+04, 1.35660166015625e+04, 1.3570806640625e+04, 1.35755927734375e+04, 1.35803759765625e+04]
disSys.lin15.terminal_p.v[1]=[1.3580224609375e+04, 1.3580224609375e+04, 1.3580224609375e+04, 1.3580224609375e+04, 1.3580224609375e+04, 1.3580224609375e+04, 1.3580224609375e+04, 1.3580224609375e+04, 1.3580224609375e+04, 1.3580224609375e+04, 1.3580224609375e+04, 1.3580224609375e+04, 1.3580224609375e+04, 1.3580224609375e+04, 1.3580224609375e+04, 1.3580224609375e+04, 1.3580224609375e+04, 1.3580224609375e+04, 1.3580224609375e+04, 1.3580224609375e+04, 1.3580224609375e+04, 1.3580224609375e+04, 1.3580224609375e+04, 1.3580224609375e+04, 1.3580224609375e+04, 1.3580224609375e+04, 1.356333984375e+04, 1.35464072265625e+04, 1.3529427734375e+04, 1.3512400390625e+04, 1.349532421875e+04, 1.34782001953125e+04, 1.34610263671875e+04, 1.3443802734375e+04, 1.34396953125e+04, 1.344216015625e+04, 1.34446240234375e+04, 1.34470869140625e+04, 1.34495498046875e+04, 1.34520107421875e+04, 1.3454470703125e+04, 1.34569296875e+04, 1.34618447265625e+04, 1.34716630859375e+04, 1.348146484375e+04, 1.34912509765625e+04, 1.3501021484375e+04, 1.3510775390625e+04, 1.35205146484375e+04, 1.35302373046875e+04, 1.35399443359375e+04, 1.35399443359375e+04, 1.35399443359375e+04, 1.35399443359375e+04, 1.35399443359375e+04, 1.35399443359375e+04, 1.35399443359375e+04, 1.35399443359375e+04, 1.35399443359375e+04, 1.35399443359375e+04, 1.35399443359375e+04, 1.35399443359375e+04, 1.35399443359375e+04, 1.35399443359375e+04, 1.35399443359375e+04, 1.35399443359375e+04, 1.35399443359375e+04, 1.35359013671875e+04, 1.35237568359375e+04, 1.3511587890625e+04, 1.349939453125e+04, 1.348717578125e+04, 1.34749326171875e+04, 1.34626640625e+04, 1.34503701171875e+04, 1.343805078125e+04, 1.34405166015625e+04, 1.34429814453125e+04, 1.34454453125e+04, 1.3447908203125e+04, 1.34503701171875e+04, 1.34528310546875e+04, 1.3455291015625e+04, 1.34577490234375e+04, 1.3465119140625e+04, 1.34749326171875e+04, 1.34847294921875e+04, 1.3494509765625e+04, 1.35042744140625e+04, 1.35140234375e+04, 1.35237568359375e+04, 1.3533474609375e+04, 1.3541560546875e+04, 1.35464072265625e+04, 1.355125e+04, 1.35560888671875e+04, 1.3560923828125e+04, 1.35657548828125e+04, 1.357058203125e+04, 1.35754052734375e+04, 1.3580224609375e+04]
gri.P.real=[4.5580471875e+05, 4.5580471875e+05, 4.5580471875e+05, 4.5580471875e+05, 4.5580471875e+05, 4.5580471875e+05, 4.5580471875e+05, 4.5580471875e+05, 4.5580471875e+05, 4.5580471875e+05, 4.5580471875e+05, 4.5580471875e+05, 4.5580471875e+05, 4.5580471875e+05, 4.5580471875e+05, 4.5580471875e+05, 4.5580471875e+05, 4.5580471875e+05, 4.5580471875e+05, 4.5580471875e+05, 4.5580471875e+05, 4.5580471875e+05, 4.5580471875e+05, 4.5580471875e+05, 4.5580471875e+05, 4.5580471875e+05, 8.399718125e+05, 1.225328875e+06, 1.611886125000002e+06, 1.99965375e+06, 2.38864225e+06, 2.77886225e+06, 3.1703245e+06, 3.56303975e+06, 3.65672925e+06, 3.600507e+06, 3.5443105e+06, 3.48813975e+06, 3.43199475e+06, 3.3758755e+06, 3.319782e+06, 3.263714e+06, 3.151655e+06, 2.92784375e+06, 2.70443925e+06, 2.48143975e+06, 2.25884325e+06, 2.036647625e+06, 1.814850875e+06, 1.59345125e+06, 1.37244675e+06, 1.37244675e+06, 1.37244675e+06, 1.37244675e+06, 1.37244675e+06, 1.37244675e+06, 1.37244675e+06, 1.37244675e+06, 1.37244675e+06, 1.37244675e+06, 1.37244675e+06, 1.37244675e+06, 1.37244675e+06, 1.37244675e+06, 1.37244675e+06, 1.37244675e+06, 1.37244675e+06, 1.464484125e+06, 1.741007000000002e+06, 2.018149249999998e+06, 2.295914749999998e+06, 2.57430725e+06, 2.8533305e+06, 3.1329885e+06, 3.4132855e+06, 3.69422525e+06, 3.63798575e+06, 3.581772e+06, 3.525584e+06, 3.469422e+06, 3.4132855e+06, 3.35717475e+06, 3.30108975e+06, 3.2450305e+06, 3.077006e+06, 2.8533305e+06, 2.63006125e+06, 2.40719625e+06, 2.1847335e+06, 1.962671125e+06, 1.741007e+06, 1.519739375e+06, 1.335651e+06, 1.225328875e+06, 1.115104875e+06, 1.0049785625e+06, 8.9494975e+05, 7.850181875e+05, 6.75183625e+05, 5.65445875e+05, 4.5580471875e+05]
