last-generated=2020-07-22
statistics-initialization=
{
  "nonlinear": "50, 38",
  "numerical Jacobians": "0"
}
statistics-simulation=
{
  "linear": " ",
  "nonlinear": "1, 1, 43, 41",
  "number of continuous time states": "6",
  "numerical Jacobians": "0"
}
time=[0e+00, 8.64e+04]
gri.P.real=[4.610929e+06, 4.5888515e+06, 4.569861e+06, 4.551878e+06, 4.532843e+06, 4.51853e+06, 4.519002e+06, 4.52415e+06, 4.5231745e+06, 4.4974955e+06, 4.41813e+06, 4.317584e+06, 4.233314e+06, 4.015685e+06, 3.68002975e+06, 3.3776485e+06, 3.06868625e+06, 2.84934775e+06, 2.86677625e+06, 2.875873e+06, 2.88814925e+06, 2.91773775e+06, 2.93770025e+06, 2.87082825e+06, 2.824838e+06, 2.81495025e+06, 2.9278385e+06, 3.08055125e+06, 3.24208125e+06, 3.38125175e+06, 3.39044675e+06, 3.3745115e+06, 3.4147285e+06, 3.53824225e+06, 3.63510025e+06, 3.71950075e+06, 3.6119335e+06, 2.6266185e+06, 1.407911875e+06, 5.691575625e+05, 3.714669921875e+04, -4.040035625e+05, -7.054554375e+05, -7.8638e+05, -7.4145375e+05, -5.559931875e+05, -3.1490071875e+05, -1.82623515625e+05, -1.44678375e+05, -1.9459403125e+05, -2.29285203125e+05, -3.4102703125e+05, -4.1145665625e+05, -3.8694721875e+05, -2.9873946875e+05, -1.644683437499989e+05, -6.691411718749965e+04, -1.944042656249974e+05, -6.162586875e+05, -9.060756875e+05, -9.197266875e+05, -6.30428375e+05, -2.25265734375e+05, 1.9963265625e+05, 6.17255e+05, 1.110889625e+06, 1.834935125e+06, 2.75913e+06, 3.671265750000007e+06, 4.161550749999998e+06, 4.345546499999999e+06, 4.3484975e+06, 4.2145465e+06, 4.0411445e+06, 3.88941925e+06, 3.7549595e+06, 3.726595e+06, 3.70020875e+06, 3.6765405e+06, 3.6583445e+06, 3.7651095e+06, 3.92187925e+06, 4.09623875e+06, 4.284349e+06, 4.3087085e+06, 4.246613e+06, 4.1832505e+06, 4.11862975e+06, 4.2197775e+06, 4.498556e+06, 4.792013e+06, 5.100264e+06, 5.292247e+06, 5.2286235e+06, 5.168182e+06, 5.110908e+06, 5.0567155e+06, 5.000661e+06, 4.939475e+06, 4.873173e+06, 4.8017885e+06]
resBlo.ene.disSys.PDem.y=[-3.356018e+06, -3.34536925e+06, -3.332326e+06, -3.316877e+06, -3.29902225e+06, -3.27859825e+06, -3.2595585e+06, -3.24226625e+06, -3.2266885e+06, -3.21358925e+06, -3.200782e+06, -3.18759325e+06, -3.174117e+06, -3.01176275e+06, -2.70622825e+06, -2.40711375e+06, -2.1134345e+06, -1.921197125e+06, -1.92401425e+06, -1.92682675e+06, -1.9296415e+06, -1.935052875e+06, -1.9469115e+06, -1.94770025e+06, -1.9374985e+06, -1.91634025e+06, -1.878318e+06, -1.83310525e+06, -1.78071825e+06, -1.721192625e+06, -1.5397005e+06, -1.328878e+06, -1.141053875e+06, -9.7301825e+05, -8.722439999999997e+05, -8.073350625000002e+05, -7.524725e+05, -6.7844625e+05, -6.23339375e+05, -5.80650875e+05, -5.393205625e+05, -4.9933728125e+05, -4.6429040625e+05, -4.389179375e+05, -4.16663625e+05, -3.975216875e+05, -3.8191528125e+05, -3.6974325e+05, -3.574293125e+05, -3.4497321875e+05, -3.3237471875e+05, -3.4404203125e+05, -3.5580271875e+05, -3.6768121875e+05, -3.7967878125e+05, -3.936497812500001e+05, -4.079728750000001e+05, -4.222698749999999e+05, -4.365405625e+05, -4.7182209375e+05, -5.1766490625e+05, -5.635505625e+05, -6.0948175e+05, -6.545190625e+05, -7.00607625e+05, -7.493755e+05, -8.008420625e+05, -8.495014375e+05, -8.898593125000003e+05, -9.330115624999997e+05, -9.789643749999997e+05, -1.027350125e+06, -1.080253875e+06, -1.14266475e+06, -1.21456125e+06, -1.2959335e+06, -1.379059375e+06, -1.455328625e+06, -1.52421675e+06, -1.585720375e+06, -1.769364625e+06, -1.986747625e+06, -2.21005475e+06, -2.4356495e+06, -2.496367e+06, -2.473016e+06, -2.44750375e+06, -2.41983325e+06, -2.52909925e+06, -2.781276e+06, -3.038721e+06, -3.30075225e+06, -3.4712915e+06, -3.45393325e+06, -3.43948875e+06, -3.427955e+06, -3.419696e+06, -3.41162625e+06, -3.3983515e+06, -3.37987575e+06, -3.35620925e+06]
comBlo.ene.disSys.PDem.y=[-9.9554675e+05, -9.93585e+05, -9.922384375e+05, -9.915076875e+05, -9.913925625e+05, -9.925704375e+05, -9.935386875e+05, -9.940676875e+05, -9.9415625e+05, -9.96396625e+05, -9.999194375e+05, -1.003527625e+06, -1.0072258125e+06, -1.0119121875e+06, -1.0173193125e+06, -1.0224653125e+06, -1.0273456875e+06, -1.053132625e+06, -1.121260375e+06, -1.18949925e+06, -1.25785275e+06, -1.326647625e+06, -1.40006275e+06, -1.47888425e+06, -1.563161e+06, -1.6529355e+06, -1.81846375e+06, -1.988343625e+06, -2.162630500000001e+06, -2.3413995e+06, -2.559807e+06, -2.80217925e+06, -3.06516725e+06, -3.351673e+06, -3.518117e+06, -3.603436e+06, -3.67203225e+06, -3.7225775e+06, -3.75599075e+06, -3.78379075e+06, -3.8100825e+06, -3.8346105e+06, -3.890278e+06, -4.010354e+06, -4.12784725e+06, -4.240667e+06, -4.329726e+06, -4.326732e+06, -4.3246735e+06, -4.3233505e+06, -4.322311e+06, -4.231146e+06, -4.14010325e+06, -4.04908325e+06, -3.9583125e+06, -3.869623249999999e+06, -3.781859499999999e+06, -3.694607750000001e+06, -3.607882e+06, -3.594195e+06, -3.616716e+06, -3.6388415e+06, -3.6610225e+06, -3.63654375e+06, -3.56194975e+06, -3.4838e+06, -3.403322e+06, -3.324984e+06, -3.25027575e+06, -3.170653e+06, -3.086271750000001e+06, -2.9863685e+06, -2.81587075e+06, -2.61795725e+06, -2.42599725e+06, -2.23654675e+06, -2.134132e+06, -2.03869625e+06, -1.951675375e+06, -1.875791125e+06, -1.788828875e+06, -1.709033875e+06, -1.63460525e+06, -1.56551125e+06, -1.5223045e+06, -1.4911795e+06, -1.461113875e+06, -1.4321055e+06, -1.405897e+06, -1.3824685e+06, -1.360087625e+06, -1.338752875e+06, -1.312680375e+06, -1.274927625e+06, -1.236480375e+06, -1.19734e+06, -1.156995e+06, -1.114562375e+06, -1.073498625e+06, -1.033800125e+06, -9.954630625e+05]
resBlo.ene.disSys.ev.P=[-2.625e+06, -2.62409075e+06, -2.62107325e+06, -2.61593875e+06, -2.60868775e+06, -2.600459e+06, -2.593655e+06, -2.588363e+06, -2.58458325e+06, -2.58190275e+06, -2.579028e+06, -2.57585275e+06, -2.57237525e+06, -2.43653325e+06, -2.169688e+06, -1.9041595e+06, -1.639668e+06, -1.4637585e+06, -1.46372225e+06, -1.463686125e+06, -1.46365e+06, -1.463453375e+06, -1.456360625e+06, -1.438899125e+06, -1.411068875e+06, -1.372869625e+06, -1.326203875e+06, -1.272635875e+06, -1.21215575e+06, -1.14476375e+06, -9.620245e+05, -7.66068375e+05, -5.837149375e+05, -4.1890440625e+05, -3.315179062499998e+05, -2.841419375000002e+05, -2.46558e+05, -2.187660625e+05, -1.9976690625e+05, -1.83203125e+05, -1.679339375e+05, -1.5395953125e+05, -1.41302859375e+05, -1.31133765625e+05, -1.24045125e+05, -1.2003675e+05, -1.19089078125e+05, -1.193364609375e+05, -1.19439046875e+05, -1.19396890625e+05, -1.192100546875e+05, -1.1892128125e+05, -1.187226484375e+05, -1.1863840625e+05, -1.18669359375e+05, -1.1870628125e+05, -1.186983515625e+05, -1.18661046875e+05, -1.185943359375e+05, -1.185580546875e+05, -1.185580546875e+05, -1.185580546875e+05, -1.185580546875e+05, -1.187981171875e+05, -1.21198546875e+05, -1.261880234375e+05, -1.33766515625e+05, -1.43881796875e+05, -1.565330312500001e+05, -1.719082031249999e+05, -1.900073749999998e+05, -2.1084509375e+05, -2.3800246875e+05, -2.74375e+05, -3.198884375e+05, -3.744716875e+05, -4.3356846875e+05, -4.8583396875e+05, -5.308099375e+05, -5.685400625e+05, -7.192741875e+05, -9.000431875e+05, -1.084617125e+06, -1.26935825e+06, -1.34475825e+06, -1.364651375e+06, -1.382513875e+06, -1.398345375e+06, -1.53910325e+06, -1.807867375e+06, -2.077841875e+06, -2.347937e+06, -2.5304855e+06, -2.5408795e+06, -2.55379325e+06, -2.569227e+06, -2.587126e+06, -2.603321e+06, -2.6149785e+06, -2.62209875e+06, -2.6246825e+06]
resBlo.ene.disSys.PBuiTot.y=[-5.49205e+05, -5.39971625e+05, -5.307381875e+05, -5.215048125e+05, -5.1227140625e+05, -5.03038e+05, -4.9380459375e+05, -4.845711875e+05, -4.753378125e+05, -4.66412e+05, -4.5764e+05, -4.48868e+05, -4.40096e+05, -4.31324e+05, -4.22552e+05, -4.1378e+05, -4.05008e+05, -3.999108125e+05, -4.021631875e+05, -4.0441559375e+05, -4.06668e+05, -4.0892040625e+05, -4.111728125e+05, -4.134251875e+05, -4.1567759375e+05, -4.1793e+05, -4.19646e+05, -4.21362e+05, -4.23078e+05, -4.24794e+05, -4.2651e+05, -4.28226e+05, -4.29942e+05, -4.31658e+05, -4.198331874999999e+05, -4.012380000000001e+05, -3.826428125e+05, -3.6404759375e+05, -3.4545240625e+05, -3.268571875e+05, -3.08262e+05, -2.896668125e+05, -2.7388659375e+05, -2.6373640625e+05, -2.53586203125e+05, -2.43436e+05, -2.33285796875e+05, -2.2313559375e+05, -2.1298540625e+05, -2.02835203125e+05, -1.92685e+05, -2.0457159375e+05, -2.16458203125e+05, -2.28344796875e+05, -2.4023140625e+05, -2.521180000000001e+05, -2.640045937500001e+05, -2.758911874999999e+05, -2.877778125e+05, -3.220211875e+05, -3.67443e+05, -4.128648125e+05, -4.5828659375e+05, -5.0370840625e+05, -5.491301875e+05, -5.94552e+05, -6.399738125e+05, -6.7846e+05, -7.030750000000002e+05, -7.276899999999998e+05, -7.523049999999998e+05, -7.7692e+05, -8.01535e+05, -8.2615e+05, -8.50765e+05, -8.7538e+05, -8.993001875e+05, -9.23220375e+05, -9.47140625e+05, -9.710608125e+05, -9.94981e+05, -1.0189011875e+06, -1.042821375e+06, -1.066741625e+06, -1.049731375e+06, -1.012256e+06, -9.74780625e+05, -9.373051875e+05, -8.998298125e+05, -8.62354375e+05, -8.24879e+05, -7.87403625e+05, -7.53891375e+05, -7.28305625e+05, -7.027198125e+05, -6.77134e+05, -6.515481875e+05, -6.25962375e+05, -6.00376625e+05, -5.747908125e+05, -5.49205e+05]
comBlo.ene.disSys.ev.P=[-1e+05, -1.002853515625e+05, -1.01174546875e+05, -1.02668546875e+05, -1.047673359375e+05, -1.071592265625e+05, -1.09148234375e+05, -1.107052421875e+05, -1.11830265625e+05, -1.126086875e+05, -1.134210390625e+05, -1.14319234375e+05, -1.15303828125e+05, -1.163156640625e+05, -1.17091453125e+05, -1.17608046875e+05, -1.178654296875e+05, -1.17885125e+05, -1.1786703125e+05, -1.17849e+05, -1.17830953125e+05, -1.17814671875e+05, -1.2062646875e+05, -1.285904375e+05, -1.41702328125e+05, -1.59963921875e+05, -1.82828390625e+05, -2.0915678125e+05, -2.389257031250001e+05, -2.72131875e+05, -3.40047125e+05, -4.2868796875e+05, -5.34642e+05, -6.598046875e+05, -7.631875000000003e+05, -8.370536874999998e+05, -8.95802875e+05, -9.395601875e+05, -9.69448e+05, -9.94990125e+05, -1.0185789375e+06, -1.0402145e+06, -1.087967875e+06, -1.189741125e+06, -1.28848075e+06, -1.383076375e+06, -1.457906375e+06, -1.457794875e+06, -1.457970125e+06, -1.45843225e+06, -1.45918125e+06, -1.459762625e+06, -1.460135375e+06, -1.460279375e+06, -1.460193e+06, -1.4598335e+06, -1.459484e+06, -1.45919075e+06, -1.45895375e+06, -1.458871625e+06, -1.458871625e+06, -1.458871625e+06, -1.458871625e+06, -1.4145585e+06, -1.3225145e+06, -1.22666225e+06, -1.127935375e+06, -1.055322e+06, -1.03556275e+06, -1.0116985e+06, -9.837292500000002e+05, -9.388451875e+05, -8.24018e+05, -7.043789375e+05, -5.83308e+05, -4.641850625e+05, -4.064970625e+05, -3.5589840625e+05, -3.1238390625e+05, -2.759535625e+05, -2.45753375e+05, -2.20580234375e+05, -2.00446421875e+05, -1.853519375e+05, -1.745746875e+05, -1.65137890625e+05, -1.56706640625e+05, -1.49281328125e+05, -1.42802015625e+05, -1.37255203125e+05, -1.3271634375e+05, -1.29185421875e+05, -1.2656646875e+05, -1.23611484375e+05, -1.199364921875e+05, -1.155415e+05, -1.10445234375e+05, -1.058642109375e+05, -1.02579203125e+05, -1.00590203125e+05, -9.98971796875e+04]
comBlo.ene.disSys.PBuiTot.y=[-8.81025e+05, -8.79989875e+05, -8.7895475e+05, -8.77919625e+05, -8.768845e+05, -8.75849375e+05, -8.7481425e+05, -8.737791875e+05, -8.727440625e+05, -8.74167875e+05, -8.768211875e+05, -8.794745e+05, -8.821278125e+05, -8.847811875e+05, -8.874345e+05, -8.900878125e+05, -8.92741125e+05, -9.165612500000001e+05, -9.82715125e+05, -1.048869e+06, -1.11502275e+06, -1.181176625e+06, -1.2473305e+06, -1.313484375e+06, -1.379638125e+06, -1.445792e+06, -1.58237125e+06, -1.718950375e+06, -1.855529625e+06, -1.99210875e+06, -2.128688e+06, -2.26526725e+06, -2.4018465e+06, -2.5384255e+06, -2.586444e+06, -2.59018225e+06, -2.59392025e+06, -2.5976585e+06, -2.6013965e+06, -2.60513475e+06, -2.60887275e+06, -2.612611e+06, -2.6153825e+06, -2.616221e+06, -2.61705925e+06, -2.61789775e+06, -2.61873625e+06, -2.61957475e+06, -2.620413e+06, -2.6212515e+06, -2.62209e+06, -2.54107425e+06, -2.4600585e+06, -2.37904275e+06, -2.298027e+06, -2.2170115e+06, -2.13599575e+06, -2.054980000000001e+06, -1.97396425e+06, -1.960538625e+06, -1.98090825e+06, -2.00127775e+06, -2.02164725e+06, -2.04201675e+06, -2.06238625e+06, -2.08275575e+06, -2.10312525e+06, -2.096673875e+06, -2.036580375e+06, -1.976486875e+06, -1.916393375e+06, -1.856299875e+06, -1.7962065e+06, -1.736113e+06, -1.6760195e+06, -1.615926e+06, -1.57549775e+06, -1.5350695e+06, -1.49464125e+06, -1.454213e+06, -1.41378475e+06, -1.3733565e+06, -1.332928375e+06, -1.292500125e+06, -1.27016075e+06, -1.25686575e+06, -1.243570875e+06, -1.230276e+06, -1.216981e+06, -1.203686125e+06, -1.19039125e+06, -1.17709625e+06, -1.156744625e+06, -1.12227975e+06, -1.08781475e+06, -1.05334975e+06, -1.0188848125e+06, -9.84419875e+05, -9.499549375e+05, -9.154899375e+05, -8.81025e+05]
resBlo.tra.numEVCha=[5.25e+02, 5.248181762695312e+02, 5.242146606445312e+02, 5.23187744140625e+02, 5.21737548828125e+02, 5.20091796875e+02, 5.187310180664062e+02, 5.17672607421875e+02, 5.169166259765625e+02, 5.163805541992188e+02, 5.158056030273438e+02, 5.151705322265625e+02, 5.144750366210938e+02, 4.87306640625e+02, 4.339375915527343e+02, 3.808319091796875e+02, 3.2793359375e+02, 2.92751708984375e+02, 2.927444458007812e+02, 2.927372131347656e+02, 2.927300109863281e+02, 2.92690673828125e+02, 2.912721252441406e+02, 2.877798156738281e+02, 2.822137756347656e+02, 2.745739135742188e+02, 2.652407531738281e+02, 2.545271606445312e+02, 2.42431167602539e+02, 2.289527587890625e+02, 1.924049072265625e+02, 1.532136840820312e+02, 1.167429885864258e+02, 8.37808837890625e+01, 6.630358123779293e+01, 5.682838821411136e+01, 4.931159973144531e+01, 4.375321197509766e+01, 3.99533805847168e+01, 3.6640625e+01, 3.358678817749023e+01, 3.079190635681152e+01, 2.826057243347168e+01, 2.622675323486328e+01, 2.480902481079102e+01, 2.400735092163086e+01, 2.381781578063965e+01, 2.38672924041748e+01, 2.388780975341797e+01, 2.387937927246094e+01, 2.384201049804688e+01, 2.378425598144531e+01, 2.374452972412109e+01, 2.372768211364746e+01, 2.373387145996094e+01, 2.374125671386719e+01, 2.373966979980469e+01, 2.373221015930176e+01, 2.37188663482666e+01, 2.371161079406738e+01, 2.371161079406738e+01, 2.371161079406738e+01, 2.371161079406738e+01, 2.375962448120117e+01, 2.423970985412598e+01, 2.523760604858398e+01, 2.67533016204834e+01, 2.877635765075684e+01, 3.1306604385376e+01, 3.438164138793942e+01, 3.800147628784176e+01, 4.216901779174805e+01, 4.760049438476562e+01, 5.4875e+01, 6.397768402099609e+01, 7.489434051513672e+01, 8.671369171142578e+01, 9.716679382324219e+01, 1.06161994934082e+02, 1.137080154418945e+02, 1.438548431396484e+02, 1.800086364746094e+02, 2.169234161376953e+02, 2.538716430664062e+02, 2.689516296386719e+02, 2.729302673339844e+02, 2.765027770996094e+02, 2.796690979003906e+02, 3.078206481933594e+02, 3.61573486328125e+02, 4.15568359375e+02, 4.695873718261719e+02, 5.060971069335938e+02, 5.081759033203125e+02, 5.107586364746094e+02, 5.138453979492188e+02, 5.174252319335938e+02, 5.206641845703125e+02, 5.229956665039062e+02, 5.244197387695312e+02, 5.249364624023438e+02]
comBlo.tra.numEVCha=[2e+01, 2.005706977844238e+01, 2.023490905761719e+01, 2.05337085723877e+01, 2.095346641540527e+01, 2.143184471130371e+01, 2.182964706420898e+01, 2.214104843139648e+01, 2.236605262756348e+01, 2.252173805236816e+01, 2.268420791625977e+01, 2.286384582519531e+01, 2.306076431274414e+01, 2.326313209533691e+01, 2.341829109191895e+01, 2.352161026000977e+01, 2.357308578491211e+01, 2.357702445983887e+01, 2.357340621948242e+01, 2.356979942321777e+01, 2.356619071960449e+01, 2.356293487548828e+01, 2.412529373168945e+01, 2.571808815002441e+01, 2.83404655456543e+01, 3.199278450012207e+01, 3.656567764282227e+01, 4.183135604858398e+01, 4.778514099121097e+01, 5.442637252807617e+01, 6.800942993164062e+01, 8.573759460449219e+01, 1.069283981323242e+02, 1.319609375e+02, 1.526374969482422e+02, 1.674107360839843e+02, 1.791605682373047e+02, 1.879120483398438e+02, 1.938896026611328e+02, 1.989980163574219e+02, 2.037157897949219e+02, 2.080428924560547e+02, 2.175935821533203e+02, 2.379482269287109e+02, 2.576961669921875e+02, 2.766152648925781e+02, 2.91581298828125e+02, 2.915589599609375e+02, 2.915940246582031e+02, 2.916864318847656e+02, 2.918362426757812e+02, 2.919525146484375e+02, 2.920270690917969e+02, 2.920558776855469e+02, 2.920386047363281e+02, 2.919666748046875e+02, 2.918967895507812e+02, 2.918381652832031e+02, 2.91790771484375e+02, 2.917743225097656e+02, 2.917743225097656e+02, 2.917743225097656e+02, 2.917743225097656e+02, 2.829116821289062e+02, 2.645028991699219e+02, 2.453324584960938e+02, 2.255870819091797e+02, 2.110644073486328e+02, 2.07112548828125e+02, 2.023396911621094e+02, 1.967458496093751e+02, 1.8776904296875e+02, 1.648036041259766e+02, 1.408757934570312e+02, 1.166615982055664e+02, 9.283701324462891e+01, 8.129941558837891e+01, 7.117967987060547e+01, 6.247677993774414e+01, 5.519071197509766e+01, 4.915067672729492e+01, 4.411604690551758e+01, 4.008928680419922e+01, 3.707038879394531e+01, 3.491493606567383e+01, 3.302758026123047e+01, 3.134132766723633e+01, 2.985626411437988e+01, 2.856040191650391e+01, 2.745104026794434e+01, 2.654326820373535e+01, 2.583708381652832e+01, 2.531329345703125e+01, 2.472229766845703e+01, 2.398729705810547e+01, 2.310829925537109e+01, 2.208904647827148e+01, 2.117284202575684e+01, 2.051584053039551e+01, 2.011804008483887e+01, 1.997943496704102e+01]
comBlo.tra.numEV=[2e+02, 2.005707092285156e+02, 2.023490905761719e+02, 2.053370819091797e+02, 2.0953466796875e+02, 2.143184509277344e+02, 2.182964630126953e+02, 2.214104766845703e+02, 2.236605224609375e+02, 2.252173767089844e+02, 2.268420715332031e+02, 2.286384582519531e+02, 2.306076507568359e+02, 2.326313171386719e+02, 2.341829071044922e+02, 2.352160949707031e+02, 2.357308502197266e+02, 2.357702484130859e+02, 2.357340545654297e+02, 2.35697998046875e+02, 2.356619110107422e+02, 2.356293487548828e+02, 2.412529449462891e+02, 2.571808776855469e+02, 2.834046630859375e+02, 3.199278259277344e+02, 3.656567687988281e+02, 4.183135681152344e+02, 4.778514099121097e+02, 5.442637329101562e+02, 6.182675170898438e+02, 7.027671508789062e+02, 7.9797314453125e+02, 9.03842041015625e+02, 1.017583312988282e+03, 1.116071655273437e+03, 1.19440380859375e+03, 1.252746948242188e+03, 1.292597290039062e+03, 1.326653442382812e+03, 1.358105224609375e+03, 1.38695263671875e+03, 1.4129453125e+03, 1.433423095703125e+03, 1.447731201171875e+03, 1.455869873046875e+03, 1.457906372070312e+03, 1.457794921875e+03, 1.457970092773438e+03, 1.458432250976562e+03, 1.459181274414062e+03, 1.459762573242188e+03, 1.460135375976562e+03, 1.460279418945312e+03, 1.460192993164062e+03, 1.45983349609375e+03, 1.45948388671875e+03, 1.459190795898438e+03, 1.458953857421875e+03, 1.45887158203125e+03, 1.45887158203125e+03, 1.45887158203125e+03, 1.45887158203125e+03, 1.4583076171875e+03, 1.453312622070312e+03, 1.443132080078125e+03, 1.427766357421875e+03, 1.407096069335938e+03, 1.380750366210937e+03, 1.348931274414063e+03, 1.311639038085938e+03, 1.268709716796875e+03, 1.211791259765625e+03, 1.136095092773438e+03, 1.041621459960938e+03, 9.283701171875e+02, 8.12994140625e+02, 7.117968139648438e+02, 6.24767822265625e+02, 5.519071044921875e+02, 4.915067443847656e+02, 4.411604614257812e+02, 4.008928527832031e+02, 3.707038879394531e+02, 3.491493835449219e+02, 3.302757873535156e+02, 3.134132690429688e+02, 2.985626525878906e+02, 2.8560400390625e+02, 2.745104064941406e+02, 2.654326782226562e+02, 2.58370849609375e+02, 2.531329345703125e+02, 2.472229614257812e+02, 2.398729858398438e+02, 2.310829925537109e+02, 2.208904724121094e+02, 2.117284240722656e+02, 2.051584167480469e+02, 2.011804046630859e+02, 1.997943572998047e+02]
resBlo.tra.numEV=[1.5e+03, 1.49948046875e+03, 1.497756103515625e+03, 1.494822143554688e+03, 1.4906787109375e+03, 1.485976684570312e+03, 1.482088623046875e+03, 1.479064697265625e+03, 1.476904663085938e+03, 1.475372924804688e+03, 1.473730224609375e+03, 1.471915893554688e+03, 1.4699287109375e+03, 1.467791137695312e+03, 1.46600537109375e+03, 1.464738159179688e+03, 1.4639892578125e+03, 1.463758544921875e+03, 1.46372216796875e+03, 1.463686157226562e+03, 1.463650024414062e+03, 1.463453491210938e+03, 1.456360595703125e+03, 1.438899047851562e+03, 1.41106884765625e+03, 1.37286962890625e+03, 1.326203857421875e+03, 1.272635864257812e+03, 1.21215576171875e+03, 1.144763793945312e+03, 1.068916137695312e+03, 9.821389770507812e+02, 8.844165649414062e+02, 7.757489013671875e+02, 6.63035766601562e+02, 5.682838745117191e+02, 4.931159973144531e+02, 4.375321044921875e+02, 3.995338134765625e+02, 3.6640625e+02, 3.358678894042969e+02, 3.079190673828125e+02, 2.826057434082031e+02, 2.622675476074219e+02, 2.480902557373047e+02, 2.400735015869141e+02, 2.381781616210938e+02, 2.386729278564453e+02, 2.388780975341797e+02, 2.387937927246094e+02, 2.384201202392578e+02, 2.378425598144531e+02, 2.374452972412109e+02, 2.372768096923828e+02, 2.373387145996094e+02, 2.374125671386719e+02, 2.373966979980469e+02, 2.373220977783203e+02, 2.371886749267578e+02, 2.371161193847656e+02, 2.371161193847656e+02, 2.371161193847656e+02, 2.371161193847656e+02, 2.375962371826172e+02, 2.423970947265625e+02, 2.523760528564453e+02, 2.675330200195312e+02, 2.877635803222656e+02, 3.130660400390627e+02, 3.438164062499997e+02, 3.800147705078122e+02, 4.21690185546875e+02, 4.760049133300781e+02, 5.4875e+02, 6.3977685546875e+02, 7.48943359375e+02, 8.671369018554688e+02, 9.716679077148438e+02, 1.061619873046875e+03, 1.137080200195312e+03, 1.198790283203125e+03, 1.250059936523438e+03, 1.291210815429688e+03, 1.322248168945312e+03, 1.344758178710938e+03, 1.3646513671875e+03, 1.382513916015625e+03, 1.398345458984375e+03, 1.412021362304688e+03, 1.423517578125e+03, 1.432994384765625e+03, 1.440452026367188e+03, 1.44599169921875e+03, 1.45193115234375e+03, 1.459310424804688e+03, 1.468129638671875e+03, 1.478357788085938e+03, 1.487611938476562e+03, 1.4942734375e+03, 1.498342163085938e+03, 1.499818603515625e+03]
roa1.traCos.u=[1.110998916625977e+01, 1.11083812713623e+01, 1.110330390930176e+01, 1.109512710571289e+01, 1.108404922485352e+01, 1.108105945587158e+01, 1.108105945587158e+01, 1.108105945587158e+01, 1.108105945587158e+01, 1.108105945587158e+01, 1.108105945587158e+01, 1.108105945587158e+01, 1.108105945587158e+01, 1.108966255187988e+01, 1.110379600524902e+01, 1.110989189147949e+01, 1.110622406005859e+01, 1.109711360931396e+01, 1.109323596954346e+01, 1.108892726898193e+01, 1.108416938781738e+01, 1.107645130157471e+01, 1.104327201843262e+01, 1.100056171417236e+01, 1.094944763183594e+01, 1.089108371734619e+01, 1.088779354095459e+01, 1.088779354095459e+01, 1.088779354095459e+01, 1.088779354095459e+01, 1.083775520324707e+01, 1.076911449432373e+01, 1.069644737243652e+01, 1.062078380584717e+01, 1.059082221984863e+01, 1.059082221984863e+01, 1.059082221984863e+01, 1.059082221984863e+01, 1.064214038848877e+01, 1.075336456298828e+01, 1.085604095458984e+01, 1.094645690917969e+01, 1.098131561279297e+01, 1.089752197265625e+01, 1.079976081848145e+01, 1.069185733795166e+01, 1.059817981719971e+01, 1.068204307556152e+01, 1.076250553131104e+01, 1.083821582794189e+01, 1.090771007537842e+01, 1.090493965148926e+01, 1.089685821533203e+01, 1.088866806030273e+01, 1.088037014007568e+01, 1.08300952911377e+01, 1.076330947875977e+01, 1.069284439086914e+01, 1.06196231842041e+01, 1.058859062194824e+01, 1.058859062194824e+01, 1.058859062194824e+01, 1.058859062194824e+01, 1.051925754547119e+01, 1.036058044433594e+01, 1.020286178588867e+01, 1.004952812194824e+01, 9.860232353210449e+00, 9.58127975463867e+00, 9.326027870178224e+00, 9.077277183532717e+00, 8.768242835998535e+00, 7.896810531616211e+00, 6.845371723175049e+00, 5.807581424713135e+00, 4.882283210754395e+00, 5.44597339630127e+00, 6.287261962890625e+00, 7.187395572662354e+00, 8.058798789978027e+00, 8.539707183837891e+00, 8.876708030700684e+00, 9.174839019775391e+00, 9.464308738708496e+00, 9.70808219909668e+00, 9.928056716918945e+00, 1.016559600830078e+01, 1.041520500183105e+01, 1.06120433807373e+01, 1.073707294464111e+01, 1.085219287872314e+01, 1.095235824584961e+01, 1.101050186157227e+01, 1.099493980407715e+01, 1.097845840454102e+01, 1.096110057830811e+01, 1.095046329498291e+01, 1.100143241882324e+01, 1.104397583007812e+01, 1.107696914672852e+01, 1.1099289894104e+01]
roa2.traCos.u=[1.110998916625977e+01, 1.110956382751465e+01, 1.11085319519043e+01, 1.110694885253906e+01, 1.110484313964844e+01, 1.110808753967285e+01, 1.11099967956543e+01, 1.110783958435059e+01, 1.110229110717773e+01, 1.110018157958984e+01, 1.110171413421631e+01, 1.110312557220459e+01, 1.110441303253174e+01, 1.110732173919678e+01, 1.110993671417236e+01, 1.110852527618408e+01, 1.110358715057373e+01, 1.109701156616211e+01, 1.109313583374023e+01, 1.108881568908691e+01, 1.108404636383057e+01, 1.105460071563721e+01, 1.063171100616455e+01, 1.008315181732178e+01, 9.594466209411621e+00, 9.16981315612793e+00, 8.912610054016113e+00, 8.641940116882324e+00, 8.335597991943358e+00, 7.992828845977783e+00, 7.376384735107422e+00, 6.654679298400879e+00, 5.953849315643311e+00, 5.302351951599121e+00, 5.561065196990971e+00, 6.621079444885249e+00, 7.727921485900879e+00, 8.674546241760254e+00, 9.16807746887207e+00, 9.34660530090332e+00, 9.529468536376953e+00, 9.723384857177734e+00, 9.91409969329834e+00, 1.006663703918457e+01, 1.022581100463867e+01, 1.03892240524292e+01, 1.054365348815918e+01, 1.061624050140381e+01, 1.068707752227783e+01, 1.075541210174561e+01, 1.082041835784912e+01, 1.08248987197876e+01, 1.08248987197876e+01, 1.08248987197876e+01, 1.08248987197876e+01, 1.077169609069824e+01, 1.069915676116943e+01, 1.062358570098877e+01, 1.054592037200928e+01, 1.051320934295654e+01, 1.051320934295654e+01, 1.051320934295654e+01, 1.051320934295654e+01, 1.054801559448242e+01, 1.062563705444336e+01, 1.070113945007324e+01, 1.077358341217041e+01, 1.080427169799805e+01, 1.073349952697754e+01, 1.065922260284424e+01, 1.058242511749268e+01, 1.051279830932617e+01, 1.051279830932617e+01, 1.051279830932617e+01, 1.051279830932617e+01, 1.051279830932617e+01, 1.058681106567383e+01, 1.066349124908447e+01, 1.073759651184082e+01, 1.080813980102539e+01, 1.07692174911499e+01, 1.069655609130859e+01, 1.062089538574219e+01, 1.054317283630371e+01, 1.060800933837891e+01, 1.075730991363525e+01, 1.089113712310791e+01, 1.100060272216797e+01, 1.105539608001709e+01, 1.107158851623535e+01, 1.108516693115234e+01, 1.109598922729492e+01, 1.110389518737793e+01, 1.110867881774902e+01, 1.110989665985107e+01, 1.110711097717285e+01, 1.11025276184082e+01, 1.110796928405762e+01, 1.110999965667725e+01, 1.110796070098877e+01, 1.110251140594482e+01]
roa2.numSenPac=[1.5e+01, 1.644000053405762e+01, 1.78799991607666e+01, 1.931999969482422e+01, 2.076000022888184e+01, 1.8e+01, 1.439999961853027e+01, 1.080000019073486e+01, 7.199999809265137e+00, 6.480000019073486e+00, 7.199999809265137e+00, 7.920000076293945e+00, 8.640000343322754e+00, 1.080000019073486e+01, 1.439999961853028e+01, 1.8e+01, 2.160000038146973e+01, 2.447999954223633e+01, 2.592000007629395e+01, 2.736000061035156e+01, 2.879999923706055e+01, 3.840000152587891e+01, 8.880000305175781e+01, 1.391999969482422e+02, 1.896000061035156e+02, 2.4e+02, 2.687999877929688e+02, 2.976000061035156e+02, 3.263999938964845e+02, 3.552000122070312e+02, 4.04e+02, 4.567999877929688e+02, 5.096000061035156e+02, 5.624000244140625e+02, 5.255999755859372e+02, 4.440000000000003e+02, 3.623999938964844e+02, 2.807999877929688e+02, 2.291999969482422e+02, 2.076000061035156e+02, 1.86e+02, 1.643999938964844e+02, 1.450399932861328e+02, 1.301600036621094e+02, 1.152799987792969e+02, 1.004000015258789e+02, 8.687999725341797e+01, 8.016000366210938e+01, 7.344000244140625e+01, 6.672000122070312e+01, 6e+01, 6e+01, 6e+01, 6e+01, 6e+01, 6.600000000000006e+01, 7.319999694824224e+01, 8.040000152587885e+01, 8.759999847412109e+01, 9e+01, 9e+01, 9e+01, 9e+01, 8.640000152587891e+01, 7.919999694824219e+01, 7.2e+01, 6.480000305175781e+01, 6.240000152587891e+01, 6.959999847412115e+01, 7.680000305175776e+01, 8.399999999999994e+01, 9e+01, 9e+01, 9e+01, 9e+01, 9e+01, 8.280000305175781e+01, 7.559999847412109e+01, 6.840000152587891e+01, 6.120000076293945e+01, 6.6e+01, 7.319999694824219e+01, 8.040000152587891e+01, 8.759999847412109e+01, 8.040000152587891e+01, 6.6e+01, 5.159999847412109e+01, 3.720000076293945e+01, 2.820000076293945e+01, 2.460000038146973e+01, 2.1e+01, 1.739999961853027e+01, 1.380000019073486e+01, 1.019999980926514e+01, 6.599999904632568e+00, 3e+00, 6.000000238418579e-01, 4.199999809265137e+00, 7.800000190734863e+00, 1.139999961853027e+01, 1.5e+01]
roa2.numRecPac=[1.5e+01, 1.644000053405762e+01, 1.78799991607666e+01, 1.931999969482422e+01, 2.076000022888184e+01, 1.8e+01, 1.439999961853027e+01, 1.080000019073486e+01, 7.199999809265137e+00, 6.480000019073486e+00, 7.199999809265137e+00, 7.920000076293945e+00, 8.640000343322754e+00, 1.080000019073486e+01, 1.439999961853028e+01, 1.8e+01, 2.160000038146973e+01, 2.447999954223633e+01, 2.592000007629395e+01, 2.736000061035156e+01, 2.879999923706055e+01, 3.840000152587891e+01, 8.880000305175781e+01, 1.391999969482422e+02, 1.896000061035156e+02, 2.4e+02, 2.687999877929688e+02, 2.976000061035156e+02, 3.263999938964845e+02, 3.552000122070312e+02, 3.79760009765625e+02, 3.535187377929688e+02, 3.495498962402344e+02, 3.473895568847656e+02, 3.488858032226562e+02, 3.556451110839843e+02, 3.623999938964844e+02, 2.807999877929688e+02, 2.291999969482422e+02, 2.076000061035156e+02, 1.86e+02, 1.643999938964844e+02, 1.450399932861328e+02, 1.301600036621094e+02, 1.152799987792969e+02, 1.004000015258789e+02, 8.687999725341797e+01, 8.016000366210938e+01, 7.344000244140625e+01, 6.672000122070312e+01, 6e+01, 6e+01, 6e+01, 6e+01, 6e+01, 6.600000000000006e+01, 7.319999694824224e+01, 8.040000152587885e+01, 8.759999847412109e+01, 9e+01, 9e+01, 9e+01, 9e+01, 8.640000152587891e+01, 7.919999694824219e+01, 7.2e+01, 6.480000305175781e+01, 6.240000152587891e+01, 6.959999847412115e+01, 7.680000305175776e+01, 8.399999999999994e+01, 9e+01, 9e+01, 9e+01, 9e+01, 9e+01, 8.280000305175781e+01, 7.559999847412109e+01, 6.840000152587891e+01, 6.120000076293945e+01, 6.6e+01, 7.319999694824219e+01, 8.040000152587891e+01, 8.759999847412109e+01, 8.040000152587891e+01, 6.6e+01, 5.159999847412109e+01, 3.720000076293945e+01, 2.820000076293945e+01, 2.460000038146973e+01, 2.1e+01, 1.739999961853027e+01, 1.380000019073486e+01, 1.019999980926514e+01, 6.599999904632568e+00, 3e+00, 6.000000238418579e-01, 4.199999809265137e+00, 7.800000190734863e+00, 1.139999961853027e+01, 1.5e+01]
roa1.numRecPac=[1.5e+01, 1.139999961853027e+01, 7.800000190734863e+00, 4.199999809265137e+00, 6.000000238418579e-01, 0e+00, 0e+00, 0e+00, 0e+00, 0e+00, 0e+00, 0e+00, 0e+00, 2.880000114440918e+00, 8.640000343322766e+00, 1.439999961853027e+01, 2.015999984741211e+01, 2.447999954223633e+01, 2.592000007629395e+01, 2.736000061035156e+01, 2.879999923706055e+01, 3.120000076293945e+01, 3.840000152587891e+01, 4.559999847412109e+01, 5.279999923706055e+01, 6e+01, 6e+01, 6e+01, 6e+01, 6e+01, 6.6e+01, 7.319999694824219e+01, 8.040000152587891e+01, 8.759999847412109e+01, 9e+01, 9e+01, 9e+01, 9e+01, 8.459999847412109e+01, 7.380000305175781e+01, 6.3e+01, 5.220000076293945e+01, 4.859999847412109e+01, 5.940000152587891e+01, 7.019999694824219e+01, 8.1e+01, 8.868000030517578e+01, 8.076000213623047e+01, 7.283999633789062e+01, 6.491999816894531e+01, 5.7e+01, 5.795999908447266e+01, 5.891999816894531e+01, 5.988000106811523e+01, 6.084000015258789e+01, 6.680000305175787e+01, 7.376000213623053e+01, 8.072000122070307e+01, 8.768000030517578e+01, 9e+01, 9e+01, 9e+01, 9e+01, 9.719999694824219e+01, 1.115999984741211e+02, 1.26e+02, 1.403999938964844e+02, 1.6e+02, 1.900000000000003e+02, 2.199999999999997e+02, 2.499999999999997e+02, 2.880400085449219e+02, 3.387431335449219e+02, 3.219194946289062e+02, 3.22682861328125e+02, 3.2109912109375e+02, 3.226792907714844e+02, 3.220986938476562e+02, 3.238075561523438e+02, 3.360400085449219e+02, 2.96e+02, 2.612000122070312e+02, 2.263999938964844e+02, 1.916000061035156e+02, 1.648000030517578e+02, 1.42e+02, 1.191999969482422e+02, 9.640000152587891e+01, 7.9e+01, 6.7e+01, 5.5e+01, 4.3e+01, 3.579999923706055e+01, 3.820000076293945e+01, 4.059999847412109e+01, 4.3e+01, 4.379999923706055e+01, 3.659999847412109e+01, 2.939999961853027e+01, 2.220000076293945e+01, 1.5e+01]
roa1.numSenPac=[1.5e+01, 1.139999961853027e+01, 7.800000190734863e+00, 4.199999809265137e+00, 6.000000238418579e-01, 0e+00, 0e+00, 0e+00, 0e+00, 0e+00, 0e+00, 0e+00, 0e+00, 2.880000114440918e+00, 8.640000343322766e+00, 1.439999961853027e+01, 2.015999984741211e+01, 2.447999954223633e+01, 2.592000007629395e+01, 2.736000061035156e+01, 2.879999923706055e+01, 3.120000076293945e+01, 3.840000152587891e+01, 4.559999847412109e+01, 5.279999923706055e+01, 6e+01, 6e+01, 6e+01, 6e+01, 6e+01, 6.6e+01, 7.319999694824219e+01, 8.040000152587891e+01, 8.759999847412109e+01, 9e+01, 9e+01, 9e+01, 9e+01, 8.459999847412109e+01, 7.380000305175781e+01, 6.3e+01, 5.220000076293945e+01, 4.859999847412109e+01, 5.940000152587891e+01, 7.019999694824219e+01, 8.1e+01, 8.868000030517578e+01, 8.076000213623047e+01, 7.283999633789062e+01, 6.491999816894531e+01, 5.7e+01, 5.795999908447266e+01, 5.891999816894531e+01, 5.988000106811523e+01, 6.084000015258789e+01, 6.680000305175787e+01, 7.376000213623053e+01, 8.072000122070307e+01, 8.768000030517578e+01, 9e+01, 9e+01, 9e+01, 9e+01, 9.719999694824219e+01, 1.115999984741211e+02, 1.26e+02, 1.403999938964844e+02, 1.6e+02, 1.900000000000003e+02, 2.199999999999997e+02, 2.499999999999997e+02, 2.880400085449219e+02, 3.662799987792969e+02, 4.445199890136719e+02, 5.22760009765625e+02, 6.01e+02, 5.34760009765625e+02, 4.685199890136719e+02, 4.022799987792969e+02, 3.360400085449219e+02, 2.96e+02, 2.612000122070312e+02, 2.263999938964844e+02, 1.916000061035156e+02, 1.648000030517578e+02, 1.42e+02, 1.191999969482422e+02, 9.640000152587891e+01, 7.9e+01, 6.7e+01, 5.5e+01, 4.3e+01, 3.579999923706055e+01, 3.820000076293945e+01, 4.059999847412109e+01, 4.3e+01, 4.379999923706055e+01, 3.659999847412109e+01, 2.939999961853027e+01, 2.220000076293945e+01, 1.5e+01]
