last-generated=2017-09-08
statistics-initialization=
{
  "numerical Jacobians": "0", 
  "nonlinear": "1, 3, 1, 1, 17"
}
statistics-simulation=
{
  "numerical Jacobians": "0", 
  "nonlinear": "1, 0, 1, 3", 
  "number of continuous time states": "35", 
  "linear": "0, 2"
}
wseCon.TWetBul=[2.844858093261719e+02, 2.834715576171875e+02, 2.830081176757812e+02, 2.828131103515625e+02, 2.849400634765625e+02, 2.8767724609375e+02, 2.8843408203125e+02, 2.897018127441406e+02, 2.908985595703125e+02, 2.890965576171875e+02, 2.873750610351562e+02, 2.870310668945312e+02, 2.850565490722656e+02, 2.844025268554688e+02, 2.846215209960938e+02, 2.85584716796875e+02, 2.844925842285156e+02, 2.850927429199219e+02, 2.872787780761719e+02, 2.895964050292969e+02, 2.900821838378906e+02, 2.907142028808594e+02, 2.902919311523438e+02, 2.930731811523438e+02, 2.90821044921875e+02, 2.897002868652344e+02, 2.878292541503906e+02, 2.864308776855469e+02, 2.858257446289062e+02, 2.848772583007812e+02, 2.845028381347656e+02, 2.841003723144531e+02, 2.848956604003906e+02, 2.86788330078125e+02, 2.895969543457031e+02, 2.904920654296875e+02, 2.898047180175781e+02, 2.892393188476562e+02, 2.886691284179688e+02, 2.876924133300781e+02, 2.86109130859375e+02, 2.854310913085938e+02, 2.85067138671875e+02, 2.846211547851562e+02, 2.8425341796875e+02, 2.839706420898438e+02, 2.83714111328125e+02, 2.850740661621094e+02, 2.861065368652344e+02, 2.872113342285156e+02, 2.876419067382812e+02, 2.873104553222656e+02, 2.873970031738281e+02, 2.86239013671875e+02, 2.8519189453125e+02, 2.844321594238281e+02, 2.840808715820312e+02, 2.840713806152344e+02, 2.836410827636719e+02, 2.833737182617188e+02, 2.843021850585938e+02, 2.866591186523438e+02, 2.888963012695312e+02, 2.899041748046875e+02, 2.917620544433594e+02, 2.920389709472656e+02, 2.900023498535156e+02, 2.879818725585938e+02, 2.860729370117188e+02, 2.851282043457031e+02, 2.844984436035156e+02, 2.84646240234375e+02, 2.840837097167969e+02, 2.839063415527344e+02, 2.838663330078125e+02, 2.845386047363281e+02, 2.870115661621094e+02, 2.886986083984375e+02, 2.89677734375e+02, 2.908424682617188e+02, 2.89357666015625e+02, 2.880846862792969e+02, 2.865106201171875e+02, 2.850302429199219e+02, 2.841634216308594e+02, 2.842227783203125e+02, 2.844867553710938e+02, 2.843226013183594e+02, 2.840713806152344e+02, 2.842268371582031e+02, 2.857822875976562e+02, 2.865521240234375e+02, 2.869639282226562e+02, 2.870909118652344e+02, 2.867579345703125e+02, 2.865088195800781e+02, 2.860401611328125e+02, 2.847579345703125e+02, 2.838851928710938e+02, 2.837900695800781e+02, 2.835923156738281e+02]
TAirSup.T=[2.931499938964844e+02, 3.00077880859375e+02, 3.001679382324219e+02, 3.002459716796875e+02, 3.000513305664062e+02, 2.997246704101562e+02, 3.005885314941406e+02, 2.999854431152344e+02, 3.002623291015625e+02, 3.004776916503906e+02, 2.997246704101562e+02, 3.005885009765625e+02, 2.999854431152344e+02, 3.002622985839844e+02, 3.004776611328125e+02, 2.997246704101562e+02, 3.005885009765625e+02, 2.999854431152344e+02, 3.002622985839844e+02, 3.004776916503906e+02, 2.997246704101562e+02, 3.005885314941406e+02, 2.999854431152344e+02, 3.002623291015625e+02, 3.004776916503906e+02, 2.997246704101562e+02, 3.005885314941406e+02, 2.999854431152344e+02, 3.002622985839844e+02, 3.004776611328125e+02, 2.997246704101562e+02, 3.001423034667969e+02, 3.001192626953125e+02, 3.002599182128906e+02, 3.004790954589844e+02, 2.997244262695312e+02, 3.005947265625e+02, 2.999868469238281e+02, 3.002601623535156e+02, 3.004790954589844e+02, 2.997244262695312e+02, 3.005947265625e+02, 2.9998681640625e+02, 3.002601318359375e+02, 3.004790954589844e+02, 3.003733825683594e+02, 3.001004028320312e+02, 3.002006530761719e+02, 3.001498107910156e+02, 2.999336242675781e+02, 3.006871948242188e+02, 2.99822021484375e+02, 3.0042626953125e+02, 3.001498107910156e+02, 2.999336242675781e+02, 3.006871948242188e+02, 3.0028369140625e+02, 3.001453857421875e+02, 3.0009912109375e+02, 3.001956481933594e+02, 3.001012573242188e+02, 3.005953674316406e+02, 2.999872131347656e+02, 3.002597045898438e+02, 3.004785461425781e+02, 2.997243347167969e+02, 3.005955200195312e+02, 2.999872131347656e+02, 3.002596740722656e+02, 3.00478515625e+02, 2.997243347167969e+02, 3.005954895019531e+02, 2.999872131347656e+02, 3.001944580078125e+02, 3.002657165527344e+02, 3.002301330566406e+02, 3.005894165039062e+02, 2.999855651855469e+02, 3.002621459960938e+02, 3.004780578613281e+02, 2.997246704101562e+02, 3.005894165039062e+02, 2.999855346679688e+02, 3.002621154785156e+02, 3.0047802734375e+02, 3.000670776367188e+02, 3.00082275390625e+02, 3.003019409179688e+02, 3.001136474609375e+02, 3.000931701660156e+02, 3.00682373046875e+02, 2.998179931640625e+02, 3.004253540039062e+02, 3.001512451171875e+02, 2.99932373046875e+02, 3.006873779296875e+02, 2.998179931640625e+02, 3.004253540039062e+02, 3.002236633300781e+02, 3.003085632324219e+02, 3.001818542480469e+02]
time=[1.30464e+07, 1.36512e+07]
wseCon.y1=[0e+00, 1e+00, 1e+00, 1e+00, 1e+00, 1e+00, 1e+00, 1e+00, 1e+00, 1e+00, 1e+00, 1e+00, 1e+00, 1e+00, 1e+00, 1e+00, 1e+00, 1e+00, 1e+00, 1e+00, 1e+00, 1e+00, 1e+00, 1e+00, 1e+00, 1e+00, 1e+00, 1e+00, 1e+00, 1e+00, 1e+00, 1e+00, 1e+00, 1e+00, 1e+00, 1e+00, 1e+00, 1e+00, 1e+00, 1e+00, 1e+00, 1e+00, 1e+00, 1e+00, 1e+00, 1e+00, 1e+00, 1e+00, 1e+00, 1e+00, 1e+00, 1e+00, 1e+00, 1e+00, 1e+00, 1e+00, 1e+00, 1e+00, 1e+00, 1e+00, 1e+00, 1e+00, 1e+00, 1e+00, 1e+00, 1e+00, 1e+00, 1e+00, 1e+00, 1e+00, 1e+00, 1e+00, 1e+00, 1e+00, 1e+00, 1e+00, 1e+00, 1e+00, 1e+00, 1e+00, 1e+00, 1e+00, 1e+00, 1e+00, 1e+00, 1e+00, 1e+00, 1e+00, 1e+00, 1e+00, 1e+00, 1e+00, 1e+00, 1e+00, 1e+00, 1e+00, 1e+00, 1e+00, 1e+00, 1e+00, 1e+00]
chiCon.y=[0e+00, 0e+00, 0e+00, 0e+00, 0e+00, 1e+00, 1e+00, 1e+00, 1e+00, 1e+00, 1e+00, 1e+00, 1e+00, 1e+00, 1e+00, 1e+00, 1e+00, 1e+00, 1e+00, 1e+00, 1e+00, 1e+00, 1e+00, 1e+00, 1e+00, 1e+00, 1e+00, 1e+00, 1e+00, 1e+00, 1e+00, 0e+00, 0e+00, 1e+00, 1e+00, 1e+00, 1e+00, 1e+00, 1e+00, 1e+00, 1e+00, 1e+00, 1e+00, 1e+00, 1e+00, 0e+00, 0e+00, 0e+00, 1e+00, 1e+00, 1e+00, 1e+00, 1e+00, 1e+00, 1e+00, 1e+00, 0e+00, 0e+00, 0e+00, 0e+00, 0e+00, 1e+00, 1e+00, 1e+00, 1e+00, 1e+00, 1e+00, 1e+00, 1e+00, 1e+00, 1e+00, 1e+00, 1e+00, 0e+00, 0e+00, 0e+00, 1e+00, 1e+00, 1e+00, 1e+00, 1e+00, 1e+00, 1e+00, 1e+00, 1e+00, 0e+00, 0e+00, 0e+00, 0e+00, 0e+00, 1e+00, 1e+00, 1e+00, 1e+00, 1e+00, 1e+00, 1e+00, 1e+00, 0e+00, 0e+00, 0e+00]
pumCHW.m_flow=[4.995555877685547e+00, 8.53272819519043e+00, 8.02028751373291e+00, 7.751373767852783e+00, 9.248302459716797e+00, 7.858965873718262e+00, 7.858965873718262e+00, 7.858965873718262e+00, 7.858965873718262e+00, 7.858965873718262e+00, 7.858965873718262e+00, 7.858965873718262e+00, 7.858965873718262e+00, 7.858965873718262e+00, 7.858965873718262e+00, 7.858965873718262e+00, 7.858965873718262e+00, 7.858965873718262e+00, 7.858965873718262e+00, 7.858965873718262e+00, 7.858965873718262e+00, 7.858965873718262e+00, 7.858965873718262e+00, 7.858965873718262e+00, 7.858965873718262e+00, 7.858965873718262e+00, 7.858965873718262e+00, 7.858965873718262e+00, 7.858965873718262e+00, 7.858965873718262e+00, 7.858965873718262e+00, 8.53272819519043e+00, 9.016090393066406e+00, 7.858965873718262e+00, 7.858965873718262e+00, 7.858965873718262e+00, 7.858965873718262e+00, 7.858965873718262e+00, 7.858965873718262e+00, 7.858965873718262e+00, 7.858965873718262e+00, 7.858965873718262e+00, 7.858965873718262e+00, 7.858965873718262e+00, 7.858965873718262e+00, 8.280472755432129e+00, 8.53272819519043e+00, 9.016090393066406e+00, 7.858965873718262e+00, 7.858965873718262e+00, 7.858965873718262e+00, 7.858965873718262e+00, 7.858965873718262e+00, 7.858965873718262e+00, 7.858965873718262e+00, 7.858965873718262e+00, 8.53272819519043e+00, 8.53272819519043e+00, 8.280472755432129e+00, 8.280472755432129e+00, 8.777736663818359e+00, 7.858965873718262e+00, 7.858965873718262e+00, 7.858965873718262e+00, 7.858965873718262e+00, 7.858965873718262e+00, 7.858965873718262e+00, 7.858965873718262e+00, 7.858965873718262e+00, 7.858965873718262e+00, 7.858965873718262e+00, 7.858965873718262e+00, 7.858965873718262e+00, 8.280472755432129e+00, 8.280472755432129e+00, 8.777736663818359e+00, 7.858965873718262e+00, 7.858965873718262e+00, 7.858965873718262e+00, 7.858965873718262e+00, 7.858965873718262e+00, 7.858965873718262e+00, 7.858965873718262e+00, 7.858965873718262e+00, 7.858965873718262e+00, 8.777736663818359e+00, 9.016090393066406e+00, 8.53272819519043e+00, 8.777736663818359e+00, 8.777736663818359e+00, 7.858965873718262e+00, 7.858965873718262e+00, 7.858965873718262e+00, 7.858965873718262e+00, 7.858965873718262e+00, 7.858965873718262e+00, 7.858965873718262e+00, 7.858965873718262e+00, 8.280472755432129e+00, 8.280472755432129e+00, 8.280472755432129e+00]
